# FieldProfileFile, power=57.4184[MW], beamCurrent=1.18561[A]
# AccelStructure_CLICG
# z[m] E_z[MV/m] E_surf[MV/m] H_surf[kA/m] Sc[W/um^2] P[MW] P/c[MW/mm]
0 112.874 231.392 536.152 5.35104 57.4184 2.90109
0.000400718 112.853 231.342 535.984 5.3456 57.3016 2.89666
0.000801436 112.832 231.292 535.815 5.34014 57.1848 2.89223
0.00120215 112.81 231.241 535.646 5.33468 57.068 2.88779
0.00160287 112.789 231.19 535.476 5.32921 56.9514 2.88336
0.00200359 112.767 231.139 535.305 5.32373 56.8347 2.87892
0.00240431 112.745 231.088 535.133 5.31825 56.7182 2.87449
0.00280503 112.723 231.037 534.961 5.31276 56.6017 2.87005
0.00320574 112.701 230.985 534.788 5.30726 56.4853 2.86561
0.00360646 112.679 230.933 534.615 5.30175 56.369 2.86117
0.00400718 112.656 230.881 534.441 5.29624 56.2527 2.85673
0.0044079 112.634 230.828 534.266 5.29072 56.1365 2.85229
0.00480862 112.611 230.776 534.091 5.28519 56.0204 2.84784
0.00520933 112.588 230.723 533.915 5.27966 55.9043 2.8434
0.00561005 112.565 230.67 533.738 5.27411 55.7883 2.83895
0.00601077 112.542 230.616 533.561 5.26856 55.6723 2.83451
0.00641149 112.519 230.563 533.383 5.263 55.5565 2.83006
0.00681221 112.496 230.509 533.204 5.25744 55.4406 2.82561
0.00721292 112.472 230.455 533.025 5.25187 55.3249 2.82116
0.00761364 112.448 230.4 532.845 5.24629 55.2092 2.81671
0.00801436 112.424 230.346 532.664 5.2407 55.0936 2.81225
0.00841508 112.4 230.291 532.483 5.23511 54.9781 2.8078
0.0088158 112.376 230.236 532.3 5.2295 54.8626 2.80334
0.00921651 112.352 230.18 532.118 5.22389 54.7472 2.79889
0.00961723 112.327 230.125 531.934 5.21828 54.6319 2.79443
0.010018 112.303 230.069 531.75 5.21265 54.5167 2.78997
0.0104187 112.278 230.013 531.566 5.20702 54.4015 2.78551
0.0108194 112.253 229.956 531.38 5.20138 54.2863 2.78105
0.0112201 112.228 229.9 531.194 5.19574 54.1713 2.77659
0.0116208 112.203 229.843 531.007 5.19008 54.0563 2.77213
0.0120215 112.177 229.786 530.82 5.18442 53.9414 2.76767
0.0124223 112.152 229.729 530.632 5.17876 53.8266 2.7632
0.012823 112.126 229.671 530.443 5.17308 53.7118 2.75874
0.0132237 112.101 229.613 530.253 5.1674 53.5971 2.75427
0.0136244 112.075 229.555 530.063 5.16171 53.4825 2.74981
0.0140251 112.048 229.497 529.872 5.15601 53.3679 2.74534
0.0144258 112.022 229.438 529.681 5.15031 53.2534 2.74087
0.0148266 111.996 229.379 529.489 5.14459 53.139 2.7364
0.0152273 111.969 229.32 529.296 5.13888 53.0246 2.73193
0.015628 111.942 229.261 529.102 5.13315 52.9104 2.72745
0.0160287 111.916 229.201 528.908 5.12741 52.7962 2.72298
0.0164294 111.889 229.141 528.713 5.12167 52.682 2.71851
0.0168302 111.861 229.081 528.517 5.11593 52.568 2.71403
0.0172309 111.834 229.021 528.321 5.11017 52.454 2.70956
0.0176316 111.807 228.96 528.124 5.10441 52.3401 2.70508
0.0180323 111.779 228.899 527.926 5.09864 52.2262 2.7006
0.018433 111.751 228.838 527.727 5.09286 52.1125 2.69612
0.0188337 111.723 228.776 527.528 5.08707 51.9988 2.69164
0.0192345 111.695 228.715 527.328 5.08128 51.8852 2.68716
0.0196352 111.667 228.653 527.128 5.07548 51.7716 2.68268
0.0200359 111.638 228.59 526.926 5.06968 51.6581 2.6782
0.0204366 111.61 228.528 526.724 5.06386 51.5447 2.67372
0.0208373 111.581 228.465 526.522 5.05804 51.4314 2.66923
0.0212381 111.552 228.402 526.318 5.05221 51.3181 2.66475
0.0216388 111.523 228.339 526.114 5.04638 51.205 2.66026
0.0220395 111.494 228.275 525.909 5.04053 51.0919 2.65578
0.0224402 111.465 228.211 525.704 5.03468 50.9788 2.65129
0.0228409 111.435 228.147 525.498 5.02883 50.8659 2.6468
0.0232416 111.405 228.083 525.291 5.02296 50.753 2.64231
0.0236424 111.375 228.018 525.083 5.01709 50.6402 2.63782
0.0240431 111.345 227.953 524.875 5.01121 50.5275 2.63333
0.0244438 111.315 227.888 524.665 5.00533 50.4148 2.62884
0.0248445 111.285 227.822 524.456 4.99943 50.3022 2.62435
0.0252452 111.255 227.757 524.245 4.99353 50.1897 2.61986
0.025646 111.224 227.691 524.034 4.98762 50.0773 2.61536
0.0260467 111.193 227.624 523.822 4.98171 49.9649 2.61087
0.0264474 111.162 227.558 523.609 4.97579 49.8527 2.60638
0.0268481 111.131 227.491 523.396 4.96986 49.7405 2.60188
0.0272488 111.1 227.424 523.182 4.96392 49.6283 2.59738
0.0276495 111.068 227.357 522.967 4.95798 49.5163 2.59289
0.0280503 111.037 227.289 522.751 4.95203 49.4043 2.58839
0.028451 111.005 227.221 522.535 4.94607 49.2924 2.58389
0.0288517 110.973 227.153 522.318 4.9401 49.1806 2.57939
0.0292524 110.941 227.084 522.1 4.93413 49.0689 2.57489
0.0296531 110.909 227.015 521.881 4.92815 48.9572 2.57039
0.0300539 110.876 226.946 521.662 4.92216 48.8457 2.56589
0.0304546 110.844 226.877 521.442 4.91617 48.7342 2.56139
0.0308553 110.811 226.807 521.221 4.91017 48.6228 2.55689
0.031256 110.778 226.737 521 4.90416 48.5114 2.55238
0.0316567 110.745 226.667 520.778 4.89814 48.4001 2.54788
0.0320574 110.711 226.597 520.555 4.89212 48.289 2.54338
0.0324582 110.678 226.526 520.331 4.88609 48.1779 2.53887
0.0328589 110.644 226.455 520.107 4.88005 48.0668 2.53436
0.0332596 110.611 226.384 519.881 4.87401 47.9559 2.52986
0.0336603 110.577 226.312 519.655 4.86796 47.845 2.52535
0.034061 110.543 226.24 519.429 4.8619 47.7342 2.52084
0.0344617 110.508 226.168 519.201 4.85584 47.6235 2.51634
0.0348625 110.474 226.095 518.973 4.84976 47.5129 2.51183
0.0352632 110.439 226.023 518.744 4.84368 47.4024 2.50732
0.0356639 110.405 225.95 518.515 4.8376 47.2919 2.50281
0.0360646 110.37 225.876 518.284 4.8315 47.1815 2.4983
0.0364653 110.335 225.802 518.053 4.8254 47.0712 2.49379
0.0368661 110.299 225.729 517.821 4.8193 46.961 2.48928
0.0372668 110.264 225.654 517.588 4.81318 46.8509 2.48477
0.0376675 110.228 225.58 517.355 4.80706 46.7408 2.48026
0.0380682 110.193 225.505 517.121 4.80093 46.6308 2.47574
0.0384689 110.157 225.43 516.886 4.79479 46.5209 2.47123
0.0388696 110.12 225.354 516.65 4.78865 46.4111 2.46672
0.0392704 110.084 225.279 516.414 4.7825 46.3014 2.4622
0.0396711 110.048 225.203 516.176 4.77634 46.1918 2.45769
0.0400718 110.011 225.126 515.938 4.77018 46.0822 2.45318
0.0404725 109.974 225.05 515.7 4.76401 45.9727 2.44866
0.0408732 109.937 224.973 515.46 4.75783 45.8633 2.44415
0.041274 109.9 224.896 515.22 4.75164 45.754 2.43963
0.0416747 109.863 224.818 514.979 4.74545 45.6448 2.43511
0.0420754 109.825 224.74 514.737 4.73925 45.5356 2.4306
0.0424761 109.788 224.662 514.494 4.73305 45.4266 2.42608
0.0428768 109.75 224.584 514.251 4.72683 45.3176 2.42156
0.0432775 109.712 224.505 514.007 4.72061 45.2087 2.41704
0.0436783 109.673 224.426 513.762 4.71439 45.0999 2.41253
0.044079 109.635 224.346 513.516 4.70815 44.9912 2.40801
0.0444797 109.596 224.267 513.269 4.70191 44.8825 2.40349
0.0448804 109.558 224.187 513.022 4.69566 44.774 2.39897
0.0452811 109.519 224.107 512.774 4.68941 44.6655 2.39445
0.0456819 109.48 224.026 512.525 4.68314 44.5571 2.38993
0.0460826 109.44 223.945 512.276 4.67688 44.4488 2.38541
0.0464833 109.401 223.864 512.025 4.6706 44.3406 2.38089
0.046884 109.361 223.782 511.774 4.66432 44.2325 2.37637
0.0472847 109.322 223.7 511.522 4.65803 44.1245 2.37185
0.0476854 109.282 223.618 511.269 4.65173 44.0165 2.36733
0.0480862 109.241 223.536 511.016 4.64543 43.9087 2.36281
0.0484869 109.201 223.453 510.761 4.63912 43.8009 2.35829
0.0488876 109.161 223.37 510.506 4.6328 43.6932 2.35377
0.0492883 109.12 223.287 510.25 4.62648 43.5856 2.34924
0.049689 109.079 223.203 509.993 4.62014 43.4781 2.34472
0.0500898 109.038 223.119 509.736 4.61381 43.3706 2.3402
0.0504905 108.997 223.034 509.478 4.60746 43.2633 2.33568
0.0508912 108.955 222.95 509.218 4.60111 43.1561 2.33116
0.0512919 108.914 222.865 508.958 4.59475 43.0489 2.32663
0.0516926 108.872 222.779 508.698 4.58839 42.9418 2.32211
0.0520933 108.83 222.694 508.436 4.58201 42.8348 2.31759
0.0524941 108.788 222.608 508.174 4.57564 42.7279 2.31306
0.0528948 108.745 222.522 507.911 4.56925 42.6211 2.30854
0.0532955 108.703 222.435 507.647 4.56286 42.5144 2.30402
0.0536962 108.66 222.348 507.382 4.55646 42.4078 2.29949
0.0540969 108.617 222.261 507.116 4.55005 42.3012 2.29497
0.0544976 108.574 222.173 506.85 4.54364 42.1948 2.29045
0.0548984 108.531 222.085 506.583 4.53722 42.0884 2.28592
0.0552991 108.487 221.997 506.315 4.53079 41.9822 2.2814
0.0556998 108.444 221.908 506.046 4.52436 41.876 2.27688
0.0561005 108.4 221.82 505.776 4.51792 41.7699 2.27235
0.0565012 108.356 221.73 505.506 4.51147 41.6639 2.26783
0.056902 108.312 221.641 505.234 4.50502 41.558 2.26331
0.0573027 108.267 221.551 504.962 4.49856 41.4522 2.25878
0.0577034 108.223 221.461 504.689 4.49209 41.3465 2.25426
0.0581041 108.178 221.37 504.415 4.48562 41.2408 2.24974
0.0585048 108.133 221.279 504.141 4.47914 41.1353 2.24521
0.0589055 108.088 221.188 503.865 4.47265 41.0299 2.24069
0.0593063 108.043 221.096 503.589 4.46616 40.9245 2.23617
0.059707 107.997 221.004 503.312 4.45966 40.8192 2.23164
0.0601077 107.951 220.912 503.034 4.45315 40.7141 2.22712
0.0605084 107.905 220.82 502.755 4.44664 40.609 2.2226
0.0609091 107.859 220.727 502.476 4.44012 40.504 2.21807
0.0613099 107.813 220.633 502.195 4.43359 40.3991 2.21355
0.0617106 107.767 220.54 501.914 4.42705 40.2943 2.20903
0.0621113 107.72 220.446 501.632 4.42051 40.1896 2.2045
0.062512 107.673 220.351 501.349 4.41397 40.085 2.19998
0.0629127 107.626 220.257 501.065 4.40741 39.9805 2.19546
0.0633134 107.579 220.162 500.781 4.40085 39.8761 2.19094
0.0637142 107.531 220.067 500.495 4.39429 39.7717 2.18642
0.0641149 107.484 219.971 500.209 4.38771 39.6675 2.18189
0.0645156 107.436 219.875 499.922 4.38113 39.5634 2.17737
0.0649163 107.388 219.778 499.634 4.37455 39.4593 2.17285
0.065317 107.34 219.682 499.345 4.36795 39.3554 2.16833
0.0657178 107.291 219.585 499.055 4.36135 39.2515 2.16381
0.0661185 107.243 219.487 498.765 4.35475 39.1478 2.15929
0.0665192 107.194 219.39 498.473 4.34814 39.0441 2.15477
0.0669199 107.145 219.291 498.181 4.34152 38.9406 2.15025
0.0673206 107.096 219.193 497.888 4.33489 38.8371 2.14573
0.0677213 107.046 219.094 497.594 4.32826 38.7337 2.14121
0.0681221 106.997 218.995 497.299 4.32162 38.6304 2.13669
0.0685228 106.947 218.895 497.003 4.31498 38.5273 2.13217
0.0689235 106.897 218.795 496.707 4.30832 38.4242 2.12765
0.0693242 106.847 218.695 496.409 4.30167 38.3212 2.12313
0.0697249 106.796 218.595 496.111 4.295 38.2183 2.11862
0.0701257 106.746 218.494 495.812 4.28833 38.1155 2.1141
0.0705264 106.695 218.392 495.512 4.28165 38.0128 2.10958
0.0709271 106.644 218.291 495.211 4.27497 37.9103 2.10506
0.0713278 106.593 218.189 494.909 4.26828 37.8078 2.10055
0.0717285 106.542 218.086 494.607 4.26158 37.7054 2.09603
0.0721292 106.49 217.983 494.303 4.25488 37.6031 2.09152
0.07253 106.438 217.88 493.999 4.24817 37.5009 2.087
0.0729307 106.386 217.777 493.694 4.24146 37.3988 2.08249
0.0733314 106.334 217.673 493.388 4.23473 37.2968 2.07797
0.0737321 106.282 217.569 493.081 4.228 37.1949 2.07346
0.0741328 106.229 217.464 492.773 4.22127 37.0931 2.06895
0.0745335 106.176 217.359 492.464 4.21453 36.9914 2.06443
0.0749343 106.123 217.254 492.154 4.20778 36.8898 2.05992
0.075335 106.07 217.148 491.844 4.20103 36.7883 2.05541
0.0757357 106.017 217.042 491.533 4.19427 36.6869 2.0509
0.0761364 105.963 216.935 491.22 4.1875 36.5856 2.04639
0.0765371 105.909 216.829 490.907 4.18073 36.4844 2.04188
0.0769379 105.855 216.721 490.593 4.17395 36.3833 2.03737
0.0773386 105.801 216.614 490.278 4.16717 36.2823 2.03286
0.0777393 105.746 216.506 489.962 4.16038 36.1814 2.02835
0.07814 105.692 216.398 489.645 4.15358 36.0806 2.02384
0.0785407 105.637 216.289 489.328 4.14677 35.9799 2.01934
0.0789414 105.582 216.18 489.009 4.13997 35.8793 2.01483
0.0793422 105.527 216.07 488.69 4.13315 35.7788 2.01033
0.0797429 105.471 215.961 488.37 4.12633 35.6785 2.00582
0.0801436 105.415 215.85 488.048 4.1195 35.5782 2.00132
0.0805443 105.36 215.74 487.726 4.11266 35.478 1.99681
0.080945 105.303 215.629 487.403 4.10582 35.3779 1.99231
0.0813458 105.247 215.517 487.079 4.09898 35.278 1.98781
0.0817465 105.191 215.406 486.754 4.09212 35.1781 1.98331
0.0821472 105.134 215.293 486.429 4.08527 35.0783 1.97881
0.0825479 105.077 215.181 486.102 4.0784 34.9787 1.97431
0.0829486 105.02 215.068 485.774 4.07153 34.8791 1.96981
0.0833493 104.962 214.955 485.446 4.06465 34.7797 1.96531
0.0837501 104.905 214.841 485.117 4.05777 34.6803 1.96081
0.0841508 104.847 214.727 484.786 4.05088 34.5811 1.95631
0.0845515 104.789 214.612 484.455 4.04399 34.4819 1.95182
0.0849522 104.731 214.498 484.123 4.03709 34.3829 1.94732
0.0853529 104.672 214.382 483.79 4.03018 34.284 1.94283
0.0857537 104.614 214.267 483.456 4.02327 34.1852 1.93833
0.0861544 104.555 214.151 483.121 4.01635 34.0864 1.93384
0.0865551 104.496 214.034 482.785 4.00942 33.9878 1.92935
0.0869558 104.436 213.917 482.448 4.00249 33.8893 1.92486
0.0873565 104.377 213.8 482.111 3.99555 33.7909 1.92037
0.0877572 104.317 213.682 481.772 3.98861 33.6927 1.91588
0.088158 104.257 213.564 481.433 3.98166 33.5945 1.91139
0.0885587 104.197 213.446 481.092 3.97471 33.4964 1.9069
0.0889594 104.137 213.327 480.751 3.96775 33.3984 1.90242
0.0893601 104.076 213.208 480.408 3.96078 33.3006 1.89793
0.0897608 104.015 213.088 480.065 3.95381 33.2028 1.89345
0.0901616 103.954 212.968 479.721 3.94683 33.1052 1.88897
0.0905623 103.893 212.848 479.376 3.93985 33.0076 1.88448
0.090963 103.832 212.727 479.03 3.93286 32.9102 1.88
0.0913637 103.77 212.606 478.683 3.92586 32.8129 1.87552
0.0917644 103.708 212.484 478.335 3.91886 32.7157 1.87104
0.0921651 103.646 212.362 477.986 3.91186 32.6186 1.86657
0.0925659 103.583 212.239 477.636 3.90484 32.5216 1.86209
0.0929666 103.521 212.117 477.285 3.89782 32.4247 1.85761
0.0933673 103.458 211.993 476.934 3.8908 32.3279 1.85314
0.093768 103.395 211.87 476.581 3.88377 32.2313 1.84866
0.0941687 103.332 211.745 476.227 3.87674 32.1347 1.84419
0.0945694 103.268 211.621 475.873 3.8697 32.0383 1.83972
0.0949702 103.205 211.496 475.517 3.86265 31.9419 1.83525
0.0953709 103.141 211.37 475.161 3.8556 31.8457 1.83078
0.0957716 103.077 211.245 474.803 3.84854 31.7496 1.82631
0.0961723 103.012 211.118 474.445 3.84148 31.6536 1.82185
0.096573 102.948 210.992 474.085 3.83441 31.5577 1.81738
0.0969738 102.883 210.865 473.725 3.82733 31.4619 1.81292
0.0973745 102.818 210.737 473.364 3.82025 31.3662 1.80845
0.0977752 102.753 210.609 473.001 3.81317 31.2707 1.80399
0.0981759 102.687 210.481 472.638 3.80607 31.1752 1.79953
0.0985766 102.621 210.352 472.274 3.79898 31.0799 1.79507
0.0989773 102.555 210.223 471.909 3.79188 30.9847 1.79061
0.0993781 102.489 210.094 471.543 3.78477 30.8896 1.78616
0.0997788 102.423 209.964 471.175 3.77765 30.7946 1.7817
0.10018 102.356 209.833 470.807 3.77054 30.6997 1.77725
0.10058 102.289 209.702 470.438 3.76341 30.6049 1.7728
0.100981 102.222 209.571 470.068 3.75628 30.5103 1.76835
0.101382 102.155 209.439 469.697 3.74915 30.4157 1.7639
0.101782 102.087 209.307 469.325 3.74201 30.3213 1.75945
0.102183 102.019 209.174 468.952 3.73486 30.227 1.755
0.102584 101.951 209.041 468.578 3.72771 30.1328 1.75056
0.102985 101.883 208.908 468.203 3.72056 30.0387 1.74611
0.103385 101.815 208.774 467.827 3.71339 29.9448 1.74167
0.103786 101.746 208.64 467.45 3.70623 29.8509 1.73723
0.104187 101.677 208.505 467.073 3.69906 29.7572 1.73279
0.104587 101.608 208.37 466.694 3.69188 29.6635 1.72835
0.104988 101.538 208.234 466.314 3.6847 29.57 1.72391
0.105389 101.469 208.098 465.933 3.67751 29.4766 1.71948
0.10579 101.399 207.961 465.551 3.67032 29.3834 1.71505
0.10619 101.329 207.824 465.168 3.66312 29.2902 1.71061
0.106591 101.258 207.687 464.784 3.65592 29.1971 1.70618
0.106992 101.188 207.549 464.399 3.64871 29.1042 1.70175
0.107392 101.117 207.411 464.014 3.64149 29.0114 1.69733
0.107793 101.046 207.272 463.627 3.63428 28.9187 1.6929
0.108194 100.975 207.133 463.239 3.62705 28.8261 1.68848
0.108595 100.903 206.993 462.85 3.61982 28.7337 1.68406
0.108995 100.831 206.853 462.46 3.61259 28.6413 1.67964
0.109396 100.759 206.712 462.069 3.60535 28.5491 1.67522
0.109797 100.687 206.571 461.677 3.59811 28.457 1.6708
0.110197 100.615 206.43 461.284 3.59086 28.365 1.66638
0.110598 100.542 206.288 460.891 3.5836 28.2731 1.66197
0.110999 100.469 206.146 460.496 3.57635 28.1814 1.65756
0.1114 100.396 206.003 460.1 3.56908 28.0898 1.65315
0.1118 100.322 205.859 459.703 3.56181 27.9982 1.64874
0.112201 100.248 205.716 459.305 3.55454 27.9068 1.64433
0.112602 100.175 205.571 458.906 3.54726 27.8156 1.63993
0.113002 100.1 205.427 458.506 3.53998 27.7244 1.63553
0.113403 100.026 205.282 458.105 3.53269 27.6334 1.63112
0.113804 99.9513 205.136 457.703 3.5254 27.5425 1.62673
0.114205 99.8763 204.99 457.3 3.5181 27.4517 1.62233
0.114605 99.8012 204.843 456.895 3.5108 27.361 1.61793
0.115006 99.7258 204.696 456.49 3.50349 27.2704 1.61354
0.115407 99.6501 204.549 456.084 3.49618 27.18 1.60915
0.115808 99.5742 204.401 455.677 3.48886 27.0897 1.60476
0.116208 99.4981 204.253 455.269 3.48154 26.9995 1.60037
0.116609 99.4217 204.104 454.859 3.47422 26.9094 1.59598
0.11701 99.3451 203.955 454.449 3.46689 26.8195 1.5916
0.11741 99.2682 203.805 454.038 3.45955 26.7296 1.58722
0.117811 99.1911 203.654 453.625 3.45221 26.6399 1.58284
0.118212 99.1137 203.504 453.212 3.44487 26.5504 1.57846
0.118613 99.0361 203.352 452.797 3.43752 26.4609 1.57408
0.119013 98.9582 203.201 452.382 3.43017 26.3716 1.56971
0.119414 98.8801 203.049 451.965 3.42281 26.2823 1.56534
0.119815 98.8017 202.896 451.548 3.41545 26.1933 1.56097
0.120215 98.7231 202.743 451.129 3.40808 26.1043 1.5566
0.120616 98.6443 202.589 450.709 3.40071 26.0154 1.55224
0.121017 98.5651 202.435 450.289 3.39333 25.9267 1.54787
0.121418 98.4858 202.281 449.867 3.38595 25.8381 1.54351
0.121818 98.4061 202.125 449.444 3.37857 25.7496 1.53915
0.122219 98.3263 201.97 449.02 3.37118 25.6613 1.53479
0.12262 98.2461 201.814 448.595 3.36379 25.5731 1.53044
0.12302 98.1658 201.657 448.169 3.35639 25.485 1.52609
0.123421 98.0851 201.5 447.742 3.34899 25.397 1.52174
0.123822 98.0042 201.343 447.314 3.34158 25.3092 1.51739
0.124223 97.9231 201.185 446.885 3.33417 25.2214 1.51304
0.124623 97.8417 201.026 446.454 3.32676 25.1338 1.5087
0.125024 97.7601 200.867 446.023 3.31934 25.0464 1.50436
0.125425 97.6782 200.708 445.591 3.31192 24.959 1.50002
0.125825 97.596 200.548 445.157 3.30449 24.8718 1.49568
0.126226 97.5136 200.388 444.722 3.29706 24.7847 1.49135
0.126627 97.4309 200.227 444.287 3.28963 24.6977 1.48702
0.127028 97.348 200.065 443.85 3.28219 24.6109 1.48269
0.127428 97.2648 199.903 443.412 3.27474 24.5242 1.47836
0.127829 97.1813 199.741 442.974 3.2673 24.4376 1.47404
0.12823 97.0976 199.578 442.534 3.25985 24.3511 1.46972
0.12863 97.0137 199.415 442.093 3.25239 24.2648 1.4654
0.129031 96.9294 199.251 441.65 3.24493 24.1786 1.46108
0.129432 96.8449 199.086 441.207 3.23747 24.0925 1.45676
0.129833 96.7602 198.921 440.763 3.23 24.0066 1.45245
0.130233 96.6752 198.756 440.318 3.22253 23.9207 1.44814
0.130634 96.5899 198.59 439.871 3.21506 23.835 1.44383
0.131035 96.5044 198.423 439.424 3.20758 23.7495 1.43953
0.131436 96.4186 198.256 438.975 3.2001 23.6641 1.43523
0.131836 96.3325 198.089 438.525 3.19261 23.5787 1.43093
0.132237 96.2462 197.921 438.075 3.18512 23.4936 1.42663
0.132638 96.1596 197.752 437.623 3.17763 23.4085 1.42234
0.133038 96.0728 197.583 437.17 3.17013 23.3236 1.41805
0.133439 95.9857 197.414 436.716 3.16263 23.2388 1.41376
0.13384 95.8983 197.244 436.26 3.15513 23.1542 1.40947
0.134241 95.8107 197.073 435.804 3.14762 23.0696 1.40519
0.134641 95.7228 196.902 435.347 3.14011 22.9852 1.40091
0.135042 95.6346 196.73 434.888 3.13259 22.901 1.39663
0.135443 95.5462 196.558 434.429 3.12508 22.8168 1.39235
0.135843 95.4575 196.386 433.968 3.11755 22.7328 1.38808
0.136244 95.3685 196.212 433.506 3.11003 22.649 1.38381
0.136645 95.2792 196.039 433.043 3.1025 22.5652 1.37954
0.137046 95.1897 195.865 432.579 3.09497 22.4816 1.37528
0.137446 95.1 195.69 432.114 3.08743 22.3982 1.37102
0.137847 95.0099 195.515 431.648 3.07989 22.3148 1.36676
0.138248 94.9196 195.339 431.18 3.07235 22.2316 1.3625
0.138648 94.829 195.162 430.712 3.06481 22.1485 1.35825
0.139049 94.7382 194.986 430.242 3.05726 22.0656 1.354
0.13945 94.647 194.808 429.772 3.0497 21.9828 1.34975
0.139851 94.5556 194.63 429.3 3.04215 21.9001 1.34551
0.140251 94.464 194.452 428.827 3.03459 21.8175 1.34126
0.140652 94.372 194.273 428.353 3.02703 21.7351 1.33703
0.141053 94.2798 194.093 427.877 3.01947 21.6529 1.33279
0.141453 94.1873 193.913 427.401 3.0119 21.5707 1.32856
0.141854 94.0946 193.733 426.923 3.00433 21.4887 1.32433
0.142255 94.0015 193.551 426.445 2.99675 21.4068 1.3201
0.142656 93.9082 193.37 425.965 2.98918 21.3251 1.31588
0.143056 93.8146 193.188 425.484 2.9816 21.2435 1.31166
0.143457 93.7208 193.005 425.002 2.97401 21.162 1.30744
0.143858 93.6267 192.822 424.519 2.96643 21.0807 1.30323
0.144258 93.5322 192.638 424.035 2.95884 20.9995 1.29902
0.144659 93.4376 192.453 423.549 2.95125 20.9184 1.29481
0.14506 93.3426 192.268 423.063 2.94365 20.8375 1.2906
0.145461 93.2474 192.083 422.575 2.93606 20.7567 1.2864
0.145861 93.1518 191.897 422.086 2.92846 20.676 1.2822
0.146262 93.056 191.71 421.596 2.92086 20.5955 1.27801
0.146663 92.96 191.523 421.105 2.91325 20.5151 1.27382
0.147064 92.8636 191.335 420.613 2.90564 20.4349 1.26963
0.147464 92.767 191.147 420.119 2.89803 20.3547 1.26544
0.147865 92.6701 190.958 419.625 2.89042 20.2748 1.26126
0.148266 92.5729 190.769 419.129 2.88281 20.1949 1.25708
0.148666 92.4754 190.579 418.632 2.87519 20.1152 1.25291
0.149067 92.3776 190.389 418.134 2.86757 20.0357 1.24873
0.149468 92.2796 190.197 417.635 2.85994 19.9562 1.24457
0.149869 92.1813 190.006 417.134 2.85232 19.877 1.2404
0.150269 92.0827 189.814 416.633 2.84469 19.7978 1.23624
0.15067 91.9838 189.621 416.13 2.83706 19.7188 1.23208
0.151071 91.8846 189.428 415.626 2.82943 19.6399 1.22792
0.151471 91.7852 189.234 415.121 2.82179 19.5612 1.22377
0.151872 91.6854 189.039 414.615 2.81416 19.4826 1.21962
0.152273 91.5854 188.844 414.107 2.80652 19.4042 1.21548
0.152674 91.4851 188.649 413.599 2.79888 19.3258 1.21134
0.153074 91.3845 188.453 413.089 2.79123 19.2477 1.2072
0.153475 91.2836 188.256 412.578 2.78359 19.1696 1.20307
0.153876 91.1824 188.059 412.066 2.77594 19.0917 1.19894
0.154276 91.081 187.861 411.553 2.76829 19.014 1.19481
0.154677 90.9792 187.663 411.038 2.76064 18.9364 1.19068
0.155078 90.8772 187.464 410.523 2.75299 18.8589 1.18656
0.155479 90.7749 187.264 410.006 2.74533 18.7816 1.18245
0.155879 90.6723 187.064 409.488 2.73767 18.7044 1.17834
0.15628 90.5694 186.863 408.969 2.73001 18.6273 1.17423
0.156681 90.4662 186.662 408.449 2.72235 18.5504 1.17012
0.157081 90.3627 186.46 407.927 2.71469 18.4736 1.16602
0.157482 90.259 186.257 407.404 2.70702 18.397 1.16192
0.157883 90.1549 186.054 406.88 2.69936 18.3205 1.15783
0.158284 90.0505 185.851 406.355 2.69169 18.2442 1.15374
0.158684 89.9459 185.646 405.829 2.68402 18.168 1.14965
0.159085 89.841 185.442 405.302 2.67635 18.0919 1.14557
0.159486 89.7357 185.236 404.773 2.66868 18.016 1.14149
0.159886 89.6302 185.03 404.243 2.661 17.9402 1.13742
0.160287 89.5244 184.824 403.712 2.65332 17.8646 1.13334
0.160688 89.4183 184.617 403.18 2.64565 17.7891 1.12928
0.161089 89.3119 184.409 402.646 2.63797 17.7138 1.12521
0.161489 89.2052 184.2 402.112 2.63029 17.6386 1.12115
0.16189 89.0982 183.991 401.576 2.62261 17.5635 1.1171
0.162291 88.9909 183.782 401.039 2.61492 17.4886 1.11305
0.162692 88.8833 183.572 400.5 2.60724 17.4138 1.109
0.163092 88.7755 183.361 399.961 2.59955 17.3392 1.10496
0.163493 88.6673 183.15 399.42 2.59187 17.2647 1.10092
0.163894 88.5588 182.938 398.878 2.58418 17.1904 1.09688
0.164294 88.45 182.725 398.335 2.57649 17.1162 1.09285
0.164695 88.341 182.512 397.791 2.5688 17.0422 1.08882
0.165096 88.2316 182.298 397.245 2.56111 16.9683 1.0848
0.165497 88.1219 182.084 396.699 2.55342 16.8945 1.08078
0.165897 88.0119 181.869 396.151 2.54573 16.8209 1.07676
0.166298 87.9017 181.653 395.602 2.53803 16.7474 1.07275
0.166699 87.7911 181.437 395.051 2.53034 16.6741 1.06875
0.167099 87.6802 181.22 394.5 2.52264 16.6009 1.06474
0.1675 87.5691 181.003 393.947 2.51495 16.5279 1.06075
0.167901 87.4576 180.785 393.393 2.50725 16.455 1.05675
0.168302 87.3458 180.566 392.837 2.49955 16.3823 1.05276
0.168702 87.2337 180.347 392.281 2.49185 16.3097 1.04878
0.169103 87.1213 180.127 391.723 2.48415 16.2373 1.04479
0.169504 87.0086 179.906 391.164 2.47645 16.165 1.04082
0.169904 86.8957 179.685 390.604 2.46875 16.0928 1.03684
0.170305 86.7824 179.464 390.042 2.46105 16.0208 1.03288
0.170706 86.6688 179.241 389.48 2.45335 15.949 1.02891
0.171107 86.5549 179.018 388.916 2.44565 15.8773 1.02495
0.171507 86.4406 178.795 388.351 2.43795 15.8057 1.021
0.171908 86.3261 178.57 387.784 2.43025 15.7343 1.01705
0.172309 86.2113 178.346 387.217 2.42254 15.6631 1.0131
0.172709 86.0962 178.12 386.648 2.41484 15.592 1.00916
0.17311 85.9807 177.894 386.078 2.40714 15.521 1.00522
0.173511 85.865 177.667 385.506 2.39944 15.4502 1.00129
0.173912 85.7489 177.44 384.934 2.39173 15.3795 0.99736
0.174312 85.6326 177.212 384.36 2.38403 15.309 0.993437
0.174713 85.5159 176.983 383.785 2.37633 15.2387 0.989518
0.175114 85.3989 176.754 383.208 2.36862 15.1685 0.985603
0.175514 85.2816 176.524 382.631 2.36092 15.0984 0.981693
0.175915 85.164 176.293 382.052 2.35322 15.0285 0.977788
0.176316 85.0461 176.062 381.472 2.34552 14.9587 0.973887
0.176717 84.9279 175.83 380.89 2.33781 14.8891 0.969991
0.177117 84.8093 175.598 380.308 2.33011 14.8196 0.9661
0.177518 84.6905 175.365 379.724 2.32241 14.7503 0.962213
0.177919 84.5713 175.131 379.139 2.31471 14.6812 0.958331
0.17832 84.4518 174.897 378.552 2.30701 14.6122 0.954454
0.17872 84.332 174.662 377.965 2.29931 14.5433 0.950581
0.179121 84.2119 174.426 377.376 2.29161 14.4746 0.946714
0.179522 84.0915 174.19 376.786 2.28391 14.406 0.942851
0.179922 83.9708 173.953 376.194 2.27621 14.3376 0.938993
0.180323 83.8497 173.715 375.601 2.26851 14.2694 0.93514
0.180724 83.7284 173.477 375.008 2.26081 14.2013 0.931292
0.181125 83.6067 173.238 374.412 2.25311 14.1333 0.927449
0.181525 83.4847 172.998 373.816 2.24542 14.0655 0.92361
0.181926 83.3624 172.758 373.218 2.23772 13.9979 0.919777
0.182327 83.2398 172.517 372.619 2.23003 13.9304 0.915948
0.182727 83.1168 172.275 372.019 2.22234 13.863 0.912125
0.183128 82.9936 172.033 371.417 2.21464 13.7959 0.908306
0.183529 82.87 171.79 370.814 2.20695 13.7288 0.904492
0.18393 82.7461 171.547 370.21 2.19926 13.6619 0.900684
0.18433 82.6218 171.303 369.604 2.19157 13.5952 0.89688
0.184731 82.4973 171.058 368.998 2.18388 13.5286 0.893082
0.185132 82.3724 170.812 368.39 2.1762 13.4622 0.889289
0.185532 82.2473 170.566 367.78 2.16851 13.396 0.885501
0.185933 82.1218 170.319 367.17 2.16083 13.3299 0.881718
0.186334 81.9959 170.072 366.558 2.15314 13.2639 0.87794
0.186735 81.8698 169.823 365.945 2.14546 13.1981 0.874167
0.187135 81.7433 169.574 365.33 2.13778 13.1324 0.8704
0.187536 81.6165 169.325 364.715 2.1301 13.0669 0.866637
0.187937 81.4894 169.075 364.098 2.12243 13.0016 0.86288
0.188337 81.362 168.824 363.479 2.11475 12.9364 0.859129
0.188738 81.2342 168.572 362.86 2.10708 12.8714 0.855382
0.189139 81.1061 168.32 362.239 2.09941 12.8065 0.851641
0.18954 80.9777 168.067 361.617 2.09174 12.7418 0.847905
0.18994 80.849 167.814 360.993 2.08407 12.6772 0.844175
0.190341 80.7199 167.559 360.368 2.0764 12.6128 0.84045
0.190742 80.5906 167.304 359.742 2.06874 12.5486 0.83673
0.191142 80.4608 167.049 359.115 2.06108 12.4845 0.833016
0.191543 80.3308 166.792 358.486 2.05342 12.4205 0.829307
0.191944 80.2004 166.535 357.856 2.04576 12.3568 0.825603
0.192345 80.0697 166.278 357.225 2.0381 12.2931 0.821905
0.192745 79.9387 166.019 356.592 2.03045 12.2297 0.818213
0.193146 79.8074 165.76 355.958 2.0228 12.1664 0.814526
0.193547 79.6757 165.5 355.323 2.01515 12.1032 0.810845
0.193948 79.5437 165.24 354.687 2.0075 12.0402 0.807169
0.194348 79.4114 164.979 354.049 1.99986 11.9774 0.803499
0.194749 79.2787 164.717 353.41 1.99222 11.9147 0.799834
0.19515 79.1457 164.454 352.769 1.98458 11.8521 0.796175
0.19555 79.0124 164.191 352.128 1.97694 11.7898 0.792521
0.195951 78.8787 163.927 351.484 1.96931 11.7276 0.788874
0.196352 78.7447 163.663 350.84 1.96168 11.6655 0.785232
0.196753 78.6104 163.397 350.194 1.95405 11.6036 0.781595
0.197153 78.4757 163.131 349.547 1.94643 11.5419 0.777965
0.197554 78.3408 162.865 348.899 1.9388 11.4803 0.77434
0.197955 78.2054 162.597 348.249 1.93118 11.4189 0.770721
0.198355 78.0698 162.329 347.598 1.92357 11.3576 0.767107
0.198756 77.9338 162.06 346.946 1.91595 11.2965 0.7635
0.199157 77.7975 161.791 346.292 1.90834 11.2356 0.759898
0.199558 77.6608 161.521 345.637 1.90074 11.1748 0.756302
0.199958 77.5239 161.25 344.981 1.89313 11.1142 0.752713
