<?xml version="1.0" encoding="UTF-8" standalone="no"?>
<!DOCTYPE svg PUBLIC "-//W3C//DTD SVG 1.0//EN" "http://www.w3.org/TR/2001/PR-SVG-20010719/DTD/svg10.dtd">
<svg width="47cm" height="37cm" viewBox="141 97 936 725" xmlns="http://www.w3.org/2000/svg" xmlns:xlink="http://www.w3.org/1999/xlink">
  <g>
    <polyline style="fill: none; fill-opacity:0; stroke-width: 2; stroke: #000000" points="173,335.518 142.941,335.518 142.941,711.266 464.556,711.266 "/>
    <polygon style="fill: #000000" points="472.056,711.266 462.056,716.266 464.556,711.266 462.056,706.266 "/>
    <polygon style="fill: none; fill-opacity:0; stroke-width: 2; stroke: #000000" points="472.056,711.266 462.056,716.266 464.556,711.266 462.056,706.266 "/>
  </g>
  <g>
    <polyline style="fill: none; fill-opacity:0; stroke-width: 2; stroke: #000000" points="716.444,261.95 694,261.95 694,623.062 400.972,623.062 "/>
    <polygon style="fill: #000000" points="393.472,623.062 403.472,618.062 400.972,623.062 403.472,628.062 "/>
    <polygon style="fill: none; fill-opacity:0; stroke-width: 2; stroke: #000000" points="393.472,623.062 403.472,618.062 400.972,623.062 403.472,628.062 "/>
  </g>
  <g>
    <line style="fill: none; fill-opacity:0; stroke-width: 2; stroke: #000000" x1="420.5" y1="168.403" x2="420.5" y2="189.281"/>
    <polygon style="fill: #000000" points="420.5,196.781 415.5,186.781 420.5,189.281 425.5,186.781 "/>
    <polygon style="fill: none; fill-opacity:0; stroke-width: 2; stroke: #000000" points="420.5,196.781 415.5,186.781 420.5,189.281 425.5,186.781 "/>
  </g>
  <g>
    <g>
      <rect style="fill: #ffffff" x="821.394" y="309.254" width="88.65" height="70"/>
      <rect style="fill: none; fill-opacity:0; stroke-width: 2; stroke: #000000" x="821.394" y="309.254" width="88.65" height="70"/>
      <text font-size="12.8" style="fill: #000000;text-anchor:middle;font-family:sans-serif;font-style:normal;font-weight:normal" x="865.719" y="332.154">
        <tspan x="865.719" y="332.154">Get wakes</tspan>
        <tspan x="865.719" y="348.154"></tspan>
        <tspan x="865.719" y="364.154"></tspan>
      </text>
    </g>
    <image x="844.716" y="346.68" width="42.0046" height="18.3401" xlink:href="file:///afs/cern.ch/user/k/kyrsjo/codes/clicopti/structureCalculator/trunk/doc/blockDiagram/v3/././././W_perp(s).png"/>
  </g>
  <g>
    <g>
      <rect style="fill: #ffffff" x="716.444" y="209.45" width="298.55" height="70"/>
      <rect style="fill: none; fill-opacity:0; stroke-width: 2; stroke: #000000" x="716.444" y="209.45" width="298.55" height="70"/>
      <text font-size="12.8" style="fill: #000000;text-anchor:middle;font-family:sans-serif;font-style:normal;font-weight:normal" x="865.719" y="232.35">
        <tspan x="865.719" y="232.35">Interpolate cell parameters as function of z</tspan>
        <tspan x="865.719" y="248.35"></tspan>
        <tspan x="865.719" y="264.35"></tspan>
      </text>
    </g>
    <image x="745.092" y="237.708" width="241.252" height="38.5141" xlink:href="file:///afs/cern.ch/user/k/kyrsjo/codes/clicopti/structureCalculator/trunk/doc/blockDiagram/v3/././././CellParams.png"/>
  </g>
  <g>
    <polyline style="fill: none; fill-opacity:0; stroke-width: 2; stroke: #000000" points="547,150.903 791.082,150.903 791.082,199.714 "/>
    <polygon style="fill: #000000" points="791.082,207.214 786.082,197.214 791.082,199.714 796.082,197.214 "/>
    <polygon style="fill: none; fill-opacity:0; stroke-width: 2; stroke: #000000" points="791.082,207.214 786.082,197.214 791.082,199.714 796.082,197.214 "/>
  </g>
  <g>
    <line style="fill: none; fill-opacity:0; stroke-width: 2; stroke: #000000" x1="716.444" y1="244.45" x2="677.736" y2="244.504"/>
    <polygon style="fill: #000000" points="670.236,244.515 680.229,239.501 677.736,244.504 680.243,249.501 "/>
    <polygon style="fill: none; fill-opacity:0; stroke-width: 2; stroke: #000000" points="670.236,244.515 680.229,239.501 677.736,244.504 680.243,249.501 "/>
  </g>
  <g>
    <line style="fill: none; fill-opacity:0; stroke-width: 2; stroke: #000000" x1="865.718" y1="279.45" x2="865.718" y2="299.518"/>
    <polygon style="fill: #000000" points="865.718,307.018 860.718,297.018 865.718,299.518 870.718,297.018 "/>
    <polygon style="fill: none; fill-opacity:0; stroke-width: 2; stroke: #000000" points="865.718,307.018 860.718,297.018 865.718,299.518 870.718,297.018 "/>
  </g>
  <g>
    <g>
      <rect style="fill: #ffffff" x="720.374" y="409.06" width="290.69" height="70"/>
      <rect style="fill: none; fill-opacity:0; stroke-width: 2; stroke: #000000" x="720.374" y="409.06" width="290.69" height="70"/>
      <text font-size="12.8" style="fill: #000000;text-anchor:middle;font-family:sans-serif;font-style:normal;font-weight:normal" x="865.719" y="431.96">
        <tspan x="865.719" y="431.96">Maximize beam current</tspan>
        <tspan x="865.719" y="447.96"></tspan>
        <tspan x="865.719" y="463.96"></tspan>
      </text>
    </g>
    <image x="740.444" y="445.57" width="250.549" height="20.1741" xlink:href="file:///afs/cern.ch/user/k/kyrsjo/codes/clicopti/structureCalculator/trunk/doc/blockDiagram/v3/././././Woptim.png"/>
  </g>
  <g>
    <line style="fill: none; fill-opacity:0; stroke-width: 2; stroke: #000000" x1="865.718" y1="379.254" x2="865.718" y2="399.324"/>
    <polygon style="fill: #000000" points="865.718,406.824 860.718,396.824 865.718,399.324 870.718,396.824 "/>
    <polygon style="fill: none; fill-opacity:0; stroke-width: 2; stroke: #000000" points="865.718,406.824 860.718,396.824 865.718,399.324 870.718,396.824 "/>
  </g>
  <g>
    <line style="fill: none; fill-opacity:0; stroke-width: 2; stroke: #000000" x1="720.374" y1="461.56" x2="658.736" y2="461.639"/>
    <polygon style="fill: #000000" points="651.236,461.649 661.23,456.636 658.736,461.639 661.243,466.636 "/>
    <polygon style="fill: none; fill-opacity:0; stroke-width: 2; stroke: #000000" points="651.236,461.649 661.23,456.636 658.736,461.639 661.243,466.636 "/>
  </g>
  <g>
    <g>
      <rect style="fill: #ffffff" x="294" y="98.4028" width="253" height="70"/>
      <rect style="fill: none; fill-opacity:0; stroke-width: 2; stroke: #000000" x="294" y="98.4028" width="253" height="70"/>
      <text font-size="12.8" style="fill: #000000;text-anchor:middle;font-family:sans-serif;font-style:normal;font-weight:normal" x="420.5" y="121.303">
        <tspan x="420.5" y="121.303">Initialize a structure</tspan>
        <tspan x="420.5" y="137.303"></tspan>
        <tspan x="420.5" y="153.303"></tspan>
      </text>
    </g>
    <image x="297.992" y="134" width="245.016" height="24.151" xlink:href="file:///afs/cern.ch/user/k/kyrsjo/codes/clicopti/structureCalculator/trunk/doc/blockDiagram/v3/././params.png"/>
  </g>
  <g>
    <line style="fill: none; fill-opacity:0; stroke-width: 2; stroke: #000000" x1="420.5" y1="381.018" x2="420.5" y2="406.416"/>
    <polygon style="fill: #000000" points="420.5,413.916 415.5,403.916 420.5,406.416 425.5,403.916 "/>
    <polygon style="fill: none; fill-opacity:0; stroke-width: 2; stroke: #000000" points="420.5,413.916 415.5,403.916 420.5,406.416 425.5,403.916 "/>
  </g>
  <g>
    <polyline style="fill: none; fill-opacity:0; stroke-width: 2; stroke: #000000" points="716.444,261.95 694,261.95 694,675.766 605.028,675.766 "/>
    <polygon style="fill: #000000" points="597.528,675.766 607.528,670.766 605.028,675.766 607.528,680.766 "/>
    <polygon style="fill: none; fill-opacity:0; stroke-width: 2; stroke: #000000" points="597.528,675.766 607.528,670.766 605.028,675.766 607.528,680.766 "/>
  </g>
  <g>
    <g>
      <rect style="fill: #ffffff" x="474.292" y="640.266" width="121" height="71"/>
      <rect style="fill: none; fill-opacity:0; stroke-width: 2; stroke: #000000" x="474.292" y="640.266" width="121" height="71"/>
      <text font-size="12.8" style="fill: #000000;text-anchor:middle;font-family:sans-serif;font-style:normal;font-weight:normal" x="534.792" y="663.666">
        <tspan x="534.792" y="663.666">Get peak</tspan>
        <tspan x="534.792" y="679.666"></tspan>
        <tspan x="534.792" y="695.666"></tspan>
      </text>
    </g>
    <image x="510.824" y="675.266" width="47.9333" height="24.7931" xlink:href="file:///afs/cern.ch/user/k/kyrsjo/codes/clicopti/structureCalculator/trunk/doc/blockDiagram/v3/././DeltaT.png"/>
  </g>
  <g>
    <line style="fill: none; fill-opacity:0; stroke-width: 2; stroke: #000000" x1="306.25" y1="598.152" x2="306.302" y2="613.326"/>
    <polygon style="fill: #000000" points="306.328,620.826 301.294,610.843 306.302,613.326 311.294,610.809 "/>
    <polygon style="fill: none; fill-opacity:0; stroke-width: 2; stroke: #000000" points="306.328,620.826 301.294,610.843 306.302,613.326 311.294,610.809 "/>
  </g>
  <g>
    <line style="fill: none; fill-opacity:0; stroke-width: 2; stroke: #000000" x1="534.75" y1="598.152" x2="534.782" y2="630.53"/>
    <polygon style="fill: #000000" points="534.79,638.03 529.78,628.035 534.782,630.53 539.78,628.025 "/>
    <polygon style="fill: none; fill-opacity:0; stroke-width: 2; stroke: #000000" points="534.79,638.03 529.78,628.035 534.782,630.53 539.78,628.025 "/>
  </g>
  <g>
    <polyline style="fill: none; fill-opacity:0; stroke-width: 2; stroke: #000000" points="173,335.518 142.908,335.518 142.908,680.812 211.7,680.812 "/>
    <polygon style="fill: #000000" points="219.2,680.812 209.2,685.812 211.7,680.812 209.2,675.812 "/>
    <polygon style="fill: none; fill-opacity:0; stroke-width: 2; stroke: #000000" points="219.2,680.812 209.2,685.812 211.7,680.812 209.2,675.812 "/>
  </g>
  <g>
    <line style="fill: none; fill-opacity:0; stroke-width: 2; stroke: #000000" x1="306.336" y1="700.062" x2="306.097" y2="725.57"/>
    <polygon style="fill: #000000" points="306.027,733.07 301.121,723.024 306.097,725.57 311.12,723.117 "/>
    <polygon style="fill: none; fill-opacity:0; stroke-width: 2; stroke: #000000" points="306.027,733.07 301.121,723.024 306.097,725.57 311.12,723.117 "/>
  </g>
  <g>
    <line style="fill: none; fill-opacity:0; stroke-width: 2; stroke: #000000" x1="534.792" y1="711.266" x2="534.852" y2="725.57"/>
    <polygon style="fill: #000000" points="534.883,733.07 529.841,723.091 534.852,725.57 539.841,723.049 "/>
    <polygon style="fill: none; fill-opacity:0; stroke-width: 2; stroke: #000000" points="534.883,733.07 529.841,723.091 534.852,725.57 539.841,723.049 "/>
  </g>
  <g>
    <ellipse style="fill: #0000ff" cx="785.951" cy="537.958" rx="45.6288" ry="44.5441"/>
    <ellipse style="fill: none; fill-opacity:0; stroke-width: 2; stroke: #000000" cx="785.951" cy="537.958" rx="45.6288" ry="44.5441"/>
    <text font-size="12.8" style="fill: #000000;text-anchor:middle;font-family:sans-serif;font-style:normal;font-weight:700" x="785.951" y="533.858">
      <tspan x="785.951" y="533.858">Average</tspan>
      <tspan x="785.951" y="549.858">gradient</tspan>
    </text>
  </g>
  <g>
    <ellipse style="fill: #00ff00" cx="864.951" cy="631.716" rx="44.5429" ry="43.4841"/>
    <ellipse style="fill: none; fill-opacity:0; stroke-width: 2; stroke: #000000" cx="864.951" cy="631.716" rx="44.5429" ry="43.4841"/>
    <text font-size="12.8" style="fill: #000000;text-anchor:middle;font-family:sans-serif;font-style:normal;font-weight:700" x="864.951" y="627.616">
      <tspan x="864.951" y="627.616">Input</tspan>
      <tspan x="864.951" y="643.616">power</tspan>
    </text>
  </g>
  <g>
    <polyline style="fill: none; fill-opacity:0; stroke-width: 2; stroke: #000000" points="649,552.652 720.93,552.652 720.93,631.716 810.672,631.716 "/>
    <polygon style="fill: #000000" points="818.172,631.716 808.172,636.716 810.672,631.716 808.172,626.716 "/>
    <polygon style="fill: none; fill-opacity:0; stroke-width: 2; stroke: #000000" points="818.172,631.716 808.172,636.716 810.672,631.716 808.172,626.716 "/>
  </g>
  <g>
    <polyline style="fill: none; fill-opacity:0; stroke-width: 2; stroke: #000000" points="978.988,343.355 938.391,343.355 938.391,399.324 "/>
    <polygon style="fill: #000000" points="938.391,406.824 933.391,396.824 938.391,399.324 943.391,396.824 "/>
    <polygon style="fill: none; fill-opacity:0; stroke-width: 2; stroke: #000000" points="938.391,406.824 933.391,396.824 938.391,399.324 943.391,396.824 "/>
  </g>
  <g>
    <g>
      <rect style="fill: #ffffff" x="191.562" y="735.306" width="457.772" height="86"/>
      <rect style="fill: none; fill-opacity:0; stroke-width: 2; stroke: #000000" x="191.562" y="735.306" width="457.772" height="86"/>
      <text font-size="12.8" style="fill: #000000;text-anchor:middle;font-family:sans-serif;font-style:normal;font-weight:normal" x="420.448" y="758.206">
        <tspan x="420.448" y="758.206">Maximize beam time</tspan>
        <tspan x="420.448" y="774.206"></tspan>
        <tspan x="420.448" y="790.206"></tspan>
        <tspan x="420.448" y="806.206"></tspan>
      </text>
    </g>
    <g>
      <image x="383.5" y="768.308" width="236.423" height="39.5526" xlink:href="file:///afs/cern.ch/user/k/kyrsjo/codes/clicopti/structureCalculator/trunk/doc/blockDiagram/v3/././deltaTintegral.png"/>
      <g>
        <image x="225.714" y="763.918" width="131.871" height="20.1005" xlink:href="file:///afs/cern.ch/user/k/kyrsjo/codes/clicopti/structureCalculator/trunk/doc/blockDiagram/v3/././ScTau.png"/>
        <image x="220.974" y="790.504" width="141.352" height="21.7464" xlink:href="file:///afs/cern.ch/user/k/kyrsjo/codes/clicopti/structureCalculator/trunk/doc/blockDiagram/v3/././Etau.png"/>
      </g>
    </g>
  </g>
  <g>
    <ellipse style="fill: #0000ff" cx="1027.51" cy="343.355" rx="48.5207" ry="47.3673"/>
    <ellipse style="fill: none; fill-opacity:0; stroke-width: 2; stroke: #000000" cx="1027.51" cy="343.355" rx="48.5207" ry="47.3673"/>
    <text font-size="12.8" style="fill: #000000;text-anchor:middle;font-family:sans-serif;font-style:normal;font-weight:700" x="1027.51" y="339.255">
      <tspan x="1027.51" y="339.255">Beam</tspan>
      <tspan x="1027.51" y="355.255">dynamics</tspan>
    </text>
  </g>
  <g>
    <ellipse style="fill: #00ff00" cx="762.953" cy="697.609" rx="49.0788" ry="46.6089"/>
    <ellipse style="fill: none; fill-opacity:0; stroke-width: 2; stroke: #000000" cx="762.953" cy="697.609" rx="49.0788" ry="46.6089"/>
    <text font-size="12.8" style="fill: #000000;text-anchor:middle;font-family:sans-serif;font-style:normal;font-weight:700" x="762.953" y="685.509">
      <tspan x="762.953" y="685.509">Max</tspan>
      <tspan x="762.953" y="701.509">pulse</tspan>
      <tspan x="762.953" y="717.509">length</tspan>
    </text>
  </g>
  <g>
    <polyline style="fill: none; fill-opacity:0; stroke-width: 2; stroke: #000000" points="740.322,537.96 721,537.96 721,507.152 658.736,507.152 "/>
    <polygon style="fill: #000000" points="651.236,507.152 661.236,502.152 658.736,507.152 661.236,512.152 "/>
    <polygon style="fill: none; fill-opacity:0; stroke-width: 2; stroke: #000000" points="651.236,507.152 661.236,502.152 658.736,507.152 661.236,512.152 "/>
  </g>
  <g>
    <g>
      <rect style="fill: #ffffff" x="192" y="416.152" width="457" height="182"/>
      <rect style="fill: none; fill-opacity:0; stroke-width: 2; stroke: #000000" x="192" y="416.152" width="457" height="182"/>
      <text font-size="12.8" style="fill: #000000;text-anchor:middle;font-family:sans-serif;font-style:normal;font-weight:normal" x="420.5" y="439.052">
        <tspan x="420.5" y="439.052">Get RF input power for given voltage and current</tspan>
        <tspan x="420.5" y="455.052"></tspan>
        <tspan x="420.5" y="471.052"></tspan>
        <tspan x="420.5" y="487.052"></tspan>
        <tspan x="420.5" y="503.052"></tspan>
        <tspan x="420.5" y="519.052"></tspan>
        <tspan x="420.5" y="535.052"></tspan>
        <tspan x="420.5" y="551.052"></tspan>
        <tspan x="420.5" y="567.052"></tspan>
        <tspan x="420.5" y="583.052"></tspan>
      </text>
    </g>
    <image x="278.186" y="451.848" width="284.628" height="48.5" xlink:href="file:///afs/cern.ch/user/k/kyrsjo/codes/clicopti/structureCalculator/trunk/doc/blockDiagram/v3/././V_L.png"/>
    <image x="349" y="500.962" width="143" height="56.0975" xlink:href="file:///afs/cern.ch/user/k/kyrsjo/codes/clicopti/structureCalculator/trunk/doc/blockDiagram/v3/././G_0.png"/>
    <image x="297.934" y="556.818" width="245.132" height="23.7101" xlink:href="file:///afs/cern.ch/user/k/kyrsjo/codes/clicopti/structureCalculator/trunk/doc/blockDiagram/v3/./Grad_L(z).png"/>
  </g>
  <g>
    <g>
      <rect style="fill: #ffffff" x="173" y="199.017" width="495" height="182"/>
      <rect style="fill: none; fill-opacity:0; stroke-width: 2; stroke: #000000" x="173" y="199.017" width="495" height="182"/>
      <text font-size="12.8" style="fill: #000000;text-anchor:middle;font-family:sans-serif;font-style:normal;font-weight:normal" x="420.5" y="221.917">
        <tspan x="420.5" y="221.917">Initialize field profile normalized integrals</tspan>
        <tspan x="420.5" y="237.917"></tspan>
        <tspan x="420.5" y="253.917"></tspan>
        <tspan x="420.5" y="269.917"></tspan>
        <tspan x="420.5" y="285.917"></tspan>
        <tspan x="420.5" y="301.917"></tspan>
        <tspan x="420.5" y="317.917"></tspan>
        <tspan x="420.5" y="333.917"></tspan>
        <tspan x="420.5" y="349.917"></tspan>
        <tspan x="420.5" y="365.917"></tspan>
      </text>
    </g>
    <g>
      <image x="250.316" y="297.816" width="190.837" height="44.0161" xlink:href="file:///afs/cern.ch/user/k/kyrsjo/codes/clicopti/structureCalculator/trunk/doc/blockDiagram/v3/././././g_L(z).png"/>
      <image x="516.004" y="299.042" width="118.664" height="41.5625" xlink:href="file:///afs/cern.ch/user/k/kyrsjo/codes/clicopti/structureCalculator/trunk/doc/blockDiagram/v3/././././INTg_L(z).png"/>
      <image x="206.332" y="236.808" width="278.802" height="53" xlink:href="file:///afs/cern.ch/user/k/kyrsjo/codes/clicopti/structureCalculator/trunk/doc/blockDiagram/v3/././././g(z).png"/>
      <image x="528.148" y="244.808" width="94.3768" height="37" xlink:href="file:///afs/cern.ch/user/k/kyrsjo/codes/clicopti/structureCalculator/trunk/doc/blockDiagram/v3/././././INTg(z).png"/>
    </g>
    <image x="392.74" y="355.54" width="55.5183" height="18.5061" xlink:href="file:///afs/cern.ch/user/k/kyrsjo/codes/clicopti/structureCalculator/trunk/doc/blockDiagram/v3/././tFILLtRISE.png"/>
  </g>
  <g>
    <ellipse style="fill: #00ff00" cx="864.953" cy="729.844" rx="45.2227" ry="44.1477"/>
    <ellipse style="fill: none; fill-opacity:0; stroke-width: 2; stroke: #000000" cx="864.953" cy="729.844" rx="45.2227" ry="44.1477"/>
    <text font-size="12.8" style="fill: #000000;text-anchor:middle;font-family:sans-serif;font-style:normal;font-weight:700" x="864.953" y="733.744">
      <tspan x="864.953" y="733.744">Efficiency</tspan>
    </text>
  </g>
  <g>
    <polyline style="fill: none; fill-opacity:0; stroke-width: 2; stroke: #000000" points="649.334,778.306 762.953,778.306 762.953,753.954 "/>
    <polygon style="fill: #000000" points="762.953,746.454 767.953,756.454 762.953,753.954 757.953,756.454 "/>
    <polygon style="fill: none; fill-opacity:0; stroke-width: 2; stroke: #000000" points="762.953,746.454 767.953,756.454 762.953,753.954 757.953,756.454 "/>
  </g>
  <g>
    <polyline style="fill: none; fill-opacity:0; stroke-width: 2; stroke: #000000" points="649.334,799.806 864.953,799.806 864.953,783.727 "/>
    <polygon style="fill: #000000" points="864.953,776.227 869.953,786.227 864.953,783.727 859.953,786.227 "/>
    <polygon style="fill: none; fill-opacity:0; stroke-width: 2; stroke: #000000" points="864.953,776.227 869.953,786.227 864.953,783.727 859.953,786.227 "/>
  </g>
  <g>
    <ellipse style="fill: #00ff00" cx="949.043" cy="537.96" rx="44.5429" ry="43.4841"/>
    <ellipse style="fill: none; fill-opacity:0; stroke-width: 2; stroke: #000000" cx="949.043" cy="537.96" rx="44.5429" ry="43.4841"/>
    <text font-size="12.8" style="fill: #000000;text-anchor:middle;font-family:sans-serif;font-style:normal;font-weight:700" x="949.043" y="533.86">
      <tspan x="949.043" y="533.86">Beam</tspan>
      <tspan x="949.043" y="549.86">current</tspan>
    </text>
  </g>
  <g>
    <polyline style="fill: none; fill-opacity:0; stroke-width: 2; stroke: #000000" points="865.719,479.06 865.719,537.96 894.764,537.96 "/>
    <polygon style="fill: #000000" points="902.264,537.96 892.264,542.96 894.764,537.96 892.264,532.96 "/>
    <polygon style="fill: none; fill-opacity:0; stroke-width: 2; stroke: #000000" points="902.264,537.96 892.264,542.96 894.764,537.96 892.264,532.96 "/>
  </g>
  <g>
    <g>
      <rect style="fill: #ffffff" x="221.436" y="623.062" width="169.8" height="77"/>
      <rect style="fill: none; fill-opacity:0; stroke-width: 2; stroke: #000000" x="221.436" y="623.062" width="169.8" height="77"/>
      <text font-size="12.8" style="fill: #000000;text-anchor:middle;font-family:sans-serif;font-style:normal;font-weight:normal" x="306.336" y="649.462">
        <tspan x="306.336" y="649.462">Get peak surface fields</tspan>
        <tspan x="306.336" y="665.462"></tspan>
        <tspan x="306.336" y="681.462"></tspan>
      </text>
    </g>
    <image x="267.336" y="657" width="78" height="34.015" xlink:href="file:///afs/cern.ch/user/k/kyrsjo/codes/clicopti/structureCalculator/trunk/doc/blockDiagram/v3/EsSc.png"/>
  </g>
</svg>
