12 0.07 1.132476 22.8199 0.00833333333332 0.00783333333332 0.0 1.91643835792e+32 1.78909e+32 0.933549463048 1.91643835792e+32 1.78909e+32 1.1 1.0
12 0.07 1.091046 21.8931 0.00833333333332 0.00783333333332 0.15 1.74785889916e+32 1.63596e+32 0.935979443642 1.74785889916e+32 1.63596e+32 1.1 1.0
12 0.07 0.969396 19.1119 0.00833333333332 0.00783333333332 0.3 1.36705268069e+32 1.28876e+32 0.942728848862 1.36705268069e+32 1.28876e+32 1.1 1.0
12 0.08 1.563654 27.967 0.00833333333332 0.00783333333332 0.0 3.9229041235e+32 3.52971e+32 0.899769632109 3.9229041235e+32 3.52971e+32 1.1 1.0
12 0.08 1.504848 26.8647 0.00833333333332 0.00783333333332 0.15 3.6337691783e+32 3.28277e+32 0.90340630869 3.6337691783e+32 3.28277e+32 1.1 1.0
12 0.08 1.332444 23.5489 0.00833333333332 0.00783333333332 0.3 2.72504669617e+32 2.50166e+32 0.91802463551 2.72504669617e+32 2.50166e+32 1.1 1.0
12 0.09 2.087424 33.2814 0.00833333333332 0.00783333333332 0.0 7.8949113666e+32 6.76019e+32 0.856271804215 7.8949113666e+32 6.76019e+32 1.1 1.0
12 0.09 2.00706 32.0033 0.00833333333332 0.00783333333332 0.15 7.2363494298e+32 6.26182e+32 0.865328583251 7.2363494298e+32 6.26182e+32 1.1 1.0
12 0.09 1.77177 28.1516 0.00833333333332 0.00783333333332 0.3 5.2247559276e+32 4.60521e+32 0.881421077619 5.2247559276e+32 4.60521e+32 1.1 1.0
12 0.1 2.712054 38.7254 0.00833333333332 0.00783333333332 0.0 1.48228385548e+33 1.19331e+33 0.805048233905 1.48228385548e+33 1.19331e+33 1.1 1.0
12 0.1 2.605542 37.2714 0.00833333333332 0.00783333333332 0.15 1.33437499742e+33 1.08557e+33 0.813541921948 1.33437499742e+33 1.08557e+33 1.1 1.0
12 0.1 2.294034 32.8835 0.00833333333332 0.00783333333332 0.3 9.7890412794e+32 8.21093e+32 0.838787963565 9.7890412794e+32 8.21093e+32 1.1 1.0
12 0.11 3.44571 44.2725 0.00833333333332 0.00783333333332 0.0 2.5527772988e+33 1.94844e+33 0.763262820034 2.5527772988e+33 1.94844e+33 1.1 1.0
12 0.11 3.308052 42.6424 0.00833333333332 0.00783333333332 0.15 2.34167409005e+33 1.79265e+33 0.765542057119 2.34167409005e+33 1.79265e+33 1.1 1.0
12 0.11 2.905812 37.718 0.00833333333332 0.00783333333332 0.3 1.74672470332e+33 1.38433e+33 0.792529010077 1.74672470332e+33 1.38433e+33 1.1 1.0
12 0.12 4.296432 49.9034 0.00833333333332 0.00783333333332 0.0 4.03257097012e+33 2.88342e+33 0.715032673043 4.03257097012e+33 2.88342e+33 1.1 1.0
12 0.12 4.122234 48.0969 0.00833333333332 0.00783333333332 0.15 3.69774851436e+33 2.67346e+33 0.722996707217 3.69774851436e+33 2.67346e+33 1.1 1.0
12 0.12 3.613596 42.6357 0.00833333333332 0.00783333333332 0.3 2.80403000069e+33 2.09417e+33 0.746842936589 2.80403000069e+33 2.09417e+33 1.1 1.0
12 0.13 5.27217 55.6041 0.00833333333332 0.00783333333332 0.0 6.1575804548e+33 4.14018e+33 0.672371239059 6.1575804548e+33 4.14018e+33 1.1 1.0
12 0.13 5.055642 53.6209 0.00833333333332 0.00783333333332 0.15 5.6541501716e+33 3.8072e+33 0.673346105861 5.6541501716e+33 3.8072e+33 1.1 1.0
12 0.13 4.423794 47.622 0.00833333333332 0.00783333333332 0.3 4.2971138563e+33 3.027e+33 0.704426296632 4.2971138563e+33 3.027e+33 1.1 1.0
12 0.14 6.38076 61.3643 0.00833333333332 0.00783333333332 0.0 9.0272665094e+33 5.5972e+33 0.62003265265 9.0272665094e+33 5.5972e+33 1.1 1.0
12 0.14 6.11574 59.2037 0.00833333333332 0.00783333333332 0.15 8.2790760908e+33 5.23056e+33 0.631780641056 8.2790760908e+33 5.23056e+33 1.1 1.0
12 0.14 5.342754 52.6659 0.00833333333332 0.00783333333332 0.3 6.3111624535e+33 4.21262e+33 0.667487175467 6.3111624535e+33 4.21262e+33 1.1 1.0
12 0.15 7.6299 67.1763 0.00833333333332 0.00783333333332 0.0 1.3084981734e+34 7.3787e+33 0.563906022186 1.3084981734e+34 7.3787e+33 1.1 1.0
12 0.15 7.30986 64.8376 0.00833333333332 0.00783333333332 0.15 1.20668227291e+34 6.92208e+33 0.573645619514 1.20668227291e+34 6.92208e+33 1.1 1.0
12 0.15 6.37674 57.7594 0.00833333333332 0.00783333333332 0.3 9.07315043e+33 5.63412e+33 0.620966228155 9.07315043e+33 5.63412e+33 1.1 1.0
12 0.16 9.0273 73.0344 0.00833333333332 0.00783333333332 0.0 1.46477923308e+34 8.50127e+33 0.580378927282 1.86131838129e+34 9.42009e+33 1.331 1.0
12 0.16 8.64528 70.5168 0.00833333333332 0.00783333333332 0.15 1.5060418133e+34 8.37296e+33 0.555958003693 1.70917599492e+34 8.87242e+33 1.21 1.0
12 0.16 7.53192 62.896 0.00833333333332 0.00783333333332 0.3 1.29219805583e+34 7.25529e+33 0.561468883757 1.29219805583e+34 7.25529e+33 1.1 1.0
12 0.17 10.58034 78.9347 0.00833333333332 0.00783333333332 0.0 1.80415004245e+34 1.00394e+34 0.556461478468 2.59525143878e+34 1.1673e+34 1.4641 1.0
12 0.17 10.12908 76.237 0.00833333333332 0.00783333333332 0.15 1.68568404782e+34 9.60517e+33 0.569808441411 2.41911157962e+34 1.13516e+34 1.4641 1.0
12 0.17 8.81442 68.071 0.00833333333332 0.00783333333332 0.3 1.420752929e+34 8.23978e+33 0.579958684709 1.79656924755e+34 9.13005e+33 1.331 1.0
12 0.18 12.29646 84.8741 0.00833333333332 0.00783333333332 0.0 1.94859314194e+34 1.12742e+34 0.578581529276 3.54027316662e+34 1.38476e+34 1.771561 1.0
12 0.18 11.7684 81.9951 0.00833333333332 0.00783333333332 0.15 2.01166873292e+34 1.12581e+34 0.559639855995 3.27504658154e+34 1.34216e+34 1.61051 1.0
12 0.18 10.2303 73.2809 0.00833333333332 0.00783333333332 0.3 1.73485032798e+34 9.84573e+33 0.567526191811 2.47265944188e+34 1.11614e+34 1.4641 1.0
12 0.19 14.18286 90.8509 0.00833333333332 0.00783333333332 0.0 2.29294503594e+34 1.29838e+34 0.566249944787 4.7085496132e+34 1.61447e+34 1.9487171 1.0
12 0.19 13.57008 87.789 0.00833333333332 0.00783333333332 0.15 2.17017982685e+34 1.24683e+34 0.574528425974 4.23977533616e+34 1.53807e+34 1.9487171 1.0
12 0.19 11.78544 78.5228 0.00833333333332 0.00783333333332 0.3 2.0226323091e+34 1.13214e+34 0.559735941578 3.30640542451e+34 1.34279e+34 1.61051 1.0
12 0.2 16.24668 96.864 0.00833333333332 0.00783333333332 0.0 2.6974195236e+34 1.51477e+34 0.561562629301 6.5146454441e+34 1.89943e+34 2.14358881 1.0
12 0.2 15.5409 93.6173 0.00833333333332 0.00783333333332 0.15 2.503759567e+34 1.43757e+34 0.574164555953 5.0032621149e+34 1.75483e+34 2.14358881 1.1
12 0.2 13.48572 83.7948 0.00833333333332 0.00783333333332 0.3 2.1616888219e+34 1.25772e+34 0.581822872588 4.36598858822e+34 1.5607e+34 1.9487171 1.0
12 0.21 18.49476 102.913 0.00833333333332 0.00783333333332 0.0 2.84085709468e+34 1.66371e+34 0.585636638716 6.3465616556e+34 2.03896e+34 2.5937424601 1.21
12 0.21 17.68758 99.4796 0.00833333333332 0.00783333333332 0.15 2.93536816893e+34 1.65174e+34 0.562702838262 6.62135465e+34 2.04283e+34 2.357947691 1.1
12 0.21 15.3369 89.0956 0.00833333333332 0.00783333333332 0.3 2.49425169235e+34 1.42722e+34 0.572203681119 5.0392387526e+34 1.78699e+34 2.14358881 1.1
12 0.22 20.93382 108.999 0.00833333333332 0.00783333333332 0.0 3.15676881973e+34 1.82213e+34 0.577213633324 7.0104206234e+34 2.26464e+34 2.85311670611 1.331
12 0.22 20.01642 105.376 0.00833333333332 0.00783333333332 0.15 3.28171267284e+34 1.83328e+34 0.558635134383 8.402073846e+34 2.21997e+34 2.5937424601 1.1
12 0.22 17.34468 94.4244 0.00833333333332 0.00783333333332 0.3 2.78343246552e+34 1.5742e+34 0.565560695113 5.8225690285e+34 1.99387e+34 2.357947691 1.21
