12 0.07 1.25830666667 22.8199 0.00833333333332 0.00783333333332 0.0 2.1656215253e+32 2.01818e+32 0.931917223957 2.1656215253e+32 2.01818e+32 1.0 1.0
12 0.07 1.21227333333 21.8931 0.00833333333332 0.00783333333332 0.15 1.988871382e+32 1.85722e+32 0.933805985047 1.988871382e+32 1.85722e+32 1.0 1.0
12 0.07 1.07710666667 19.1119 0.00833333333332 0.00783333333332 0.3 1.54570406742e+32 1.45385e+32 0.940574609748 1.54570406742e+32 1.45385e+32 1.0 1.0
12 0.08 1.73739333333 27.967 0.00833333333332 0.00783333333332 0.0 4.4553891242e+32 3.99723e+32 0.897167427709 4.4553891242e+32 3.99723e+32 1.0 1.0
12 0.08 1.67205333333 26.8647 0.00833333333332 0.00783333333332 0.15 4.0800058161e+32 3.67747e+32 0.901339401402 4.0800058161e+32 3.67747e+32 1.0 1.0
12 0.08 1.48049333333 23.5489 0.00833333333332 0.00783333333332 0.3 3.08488802756e+32 2.81903e+32 0.913819229358 3.08488802756e+32 2.81903e+32 1.0 1.0
12 0.09 2.31936 33.2814 0.00833333333332 0.00783333333332 0.0 9.0140027735e+32 7.68933e+32 0.853042781682 9.0140027735e+32 7.68933e+32 1.0 1.0
12 0.09 2.23006666667 32.0033 0.00833333333332 0.00783333333332 0.15 8.2389977015e+32 7.06227e+32 0.857175867243 8.2389977015e+32 7.06227e+32 1.0 1.0
12 0.09 1.96863333333 28.1516 0.00833333333332 0.00783333333332 0.3 5.9488044748e+32 5.23826e+32 0.880556760974 5.9488044748e+32 5.23826e+32 1.0 1.0
12 0.1 3.01339333333 38.7254 0.00833333333332 0.00783333333332 0.0 1.68985306895e+33 1.35274e+33 0.800507467102 1.68985306895e+33 1.35274e+33 1.0 1.0
12 0.1 2.89504666667 37.2714 0.00833333333332 0.00783333333332 0.15 1.52422028176e+33 1.23421e+33 0.809732041208 1.52422028176e+33 1.23421e+33 1.0 1.0
12 0.1 2.54892666667 32.8835 0.00833333333332 0.00783333333332 0.3 1.11577112056e+33 9.26931e+32 0.830753711868 1.11577112056e+33 9.26931e+32 1.0 1.0
12 0.11 3.82856666667 44.2725 0.00833333333332 0.00783333333332 0.0 2.84905532563e+33 2.16808e+33 0.760982063246 2.84905532563e+33 2.16808e+33 1.0 1.0
12 0.11 3.67561333333 42.6424 0.00833333333332 0.00783333333332 0.15 2.64643930409e+33 2.02998e+33 0.767060856776 2.64643930409e+33 2.02998e+33 1.0 1.0
12 0.11 3.22868 37.718 0.00833333333332 0.00783333333332 0.3 1.96797360165e+33 1.54685e+33 0.786011559659 1.96797360165e+33 1.54685e+33 1.0 1.0
12 0.12 4.77381333333 49.9034 0.00833333333332 0.00783333333332 0.0 4.5528583685e+33 3.23557e+33 0.710667835043 4.5528583685e+33 3.23557e+33 1.0 1.0
12 0.12 4.58026 48.0969 0.00833333333332 0.00783333333332 0.15 4.16265028688e+33 2.98858e+33 0.717951255579 4.16265028688e+33 2.98858e+33 1.0 1.0
12 0.12 4.01510666667 42.6357 0.00833333333332 0.00783333333332 0.3 3.16283208124e+33 2.34914e+33 0.74273307582 3.16283208124e+33 2.34914e+33 1.0 1.0
12 0.13 5.85796666667 55.6041 0.00833333333332 0.00783333333332 0.0 6.8497322268e+33 4.59369e+33 0.670637894723 6.8497322268e+33 4.59369e+33 1.0 1.0
12 0.13 5.61738 53.6209 0.00833333333332 0.00783333333332 0.15 6.3213111331e+33 4.27893e+33 0.67690545678 6.3213111331e+33 4.27893e+33 1.0 1.0
12 0.13 4.91532666667 47.622 0.00833333333332 0.00783333333332 0.3 4.8737730058e+33 3.428e+33 0.703356515767 4.8737730058e+33 3.428e+33 1.0 1.0
12 0.14 7.08973333333 61.3643 0.00833333333332 0.00783333333332 0.0 8.1266497443e+33 5.48499e+33 0.674938649084 8.1266497443e+33 5.48499e+33 1.21 1.21
12 0.14 6.79526666667 59.2037 0.00833333333332 0.00783333333332 0.15 7.5093669472e+33 5.13811e+33 0.684226784512 7.5093669472e+33 5.13811e+33 1.21 1.21
12 0.14 5.93639333333 52.6659 0.00833333333332 0.00783333333332 0.3 7.1247502195e+33 4.6741e+33 0.65603703372 7.1247502195e+33 4.6741e+33 1.0 1.0
12 0.15 8.47766666667 67.1763 0.00833333333332 0.00783333333332 0.0 8.3887290657e+33 5.9697e+33 0.711633425427 8.3887290657e+33 5.9697e+33 1.61051 1.61051
12 0.15 8.12206666667 64.8376 0.00833333333332 0.00783333333332 0.15 8.5519424593e+33 5.96859e+33 0.697922142064 8.5519424593e+33 5.96859e+33 1.4641 1.4641
12 0.15 7.08526666667 57.7594 0.00833333333332 0.00783333333332 0.3 8.2882500665e+33 5.54968e+33 0.669584044337 8.2882500665e+33 5.54968e+33 1.21 1.21
12 0.16 10.0303333333 73.0344 0.00833333333332 0.00783333333332 0.0 9.342628971e+33 6.75341e+33 0.722859702656 9.342628971e+33 6.75341e+33 1.9487171 1.9487171
12 0.16 9.60586666667 70.5168 0.00833333333332 0.00783333333332 0.15 8.6691764453e+33 6.35597e+33 0.733168835599 8.6691764453e+33 6.35597e+33 1.9487171 1.9487171
12 0.16 8.3688 62.896 0.00833333333332 0.00783333333332 0.3 9.2140532373e+33 6.28338e+33 0.681934414549 9.2140532373e+33 6.28338e+33 1.4641 1.4641
12 0.17 11.7559333333 78.9347 0.00833333333332 0.00783333333332 0.0 1.02937294617e+34 7.65218e+33 0.743382661111 1.02937294617e+34 7.65218e+33 2.357947691 2.357947691
12 0.17 11.2545333333 76.237 0.00833333333332 0.00783333333332 0.15 9.5955114224e+33 7.18115e+33 0.748386373991 9.5955114224e+33 7.18115e+33 2.357947691 2.357947691
12 0.17 9.7938 68.071 0.00833333333332 0.00783333333332 0.3 1.01497171441e+34 7.0957e+33 0.699103226155 1.01497171441e+34 7.0957e+33 1.771561 1.771561
12 0.18 13.6627333333 84.8741 0.00833333333332 0.00783333333332 0.0 1.12418360348e+34 8.46088e+33 0.752624391052 1.12418360348e+34 8.46088e+33 2.85311670611 2.85311670611
12 0.18 13.076 81.9951 0.00833333333332 0.00783333333332 0.15 1.04093593755e+34 7.94967e+33 0.76370405836 1.04093593755e+34 7.94967e+33 2.85311670611 2.85311670611
12 0.18 11.367 73.2809 0.00833333333332 0.00783333333332 0.3 1.0994303138e+34 7.89727e+33 0.718305644375 1.0994303138e+34 7.89727e+33 2.14358881 2.14358881
12 0.19 15.7587333333 90.8509 0.00833333333332 0.00783333333332 0.0 1.18882278528e+34 9.16385e+33 0.770833980764 1.18882278528e+34 9.16385e+33 3.45227121439 3.45227121439
12 0.19 15.0778666667 87.789 0.00833333333332 0.00783333333332 0.15 1.10349209214e+34 8.58369e+33 0.777866018356 1.10349209214e+34 8.58369e+33 3.45227121439 3.45227121439
12 0.19 13.0949333333 78.5228 0.00833333333332 0.00783333333332 0.3 1.17508468697e+34 8.6353e+33 0.734866184178 1.17508468697e+34 8.6353e+33 2.5937424601 2.5937424601
12 0.2 18.0518666667 96.864 0.00833333333332 0.00783333333332 0.0 1.24312137312e+34 9.86007e+33 0.793170338247 1.24312137312e+34 9.86007e+33 4.17724816941 4.17724816941
12 0.2 17.2676666667 93.6173 0.00833333333332 0.00783333333332 0.15 1.28717867844e+34 9.96788e+33 0.77439753835 1.28717867844e+34 9.96788e+33 3.79749833583 3.79749833583
12 0.2 14.9841333333 83.7948 0.00833333333332 0.00783333333332 0.3 1.2390464864e+34 9.34962e+33 0.754581858116 1.2390464864e+34 9.34962e+33 3.13842837672 3.13842837672
12 0.21 20.5497333333 102.913 0.00833333333332 0.00783333333332 0.0 1.3026178192e+34 1.0581e+34 0.812287368101 1.3026178192e+34 1.0581e+34 5.05447028499 5.05447028499
12 0.21 19.6528666667 99.4796 0.00833333333332 0.00783333333332 0.15 1.34687738339e+34 1.07904e+34 0.801141969794 1.34687738339e+34 1.07904e+34 4.59497298635 4.59497298635
12 0.21 17.041 89.0956 0.00833333333332 0.00783333333332 0.3 1.28982688284e+34 9.91906e+33 0.769022582175 1.28982688284e+34 9.91906e+33 3.79749833583 3.79749833583
12 0.22 23.2598 108.999 0.00833333333332 0.00783333333332 0.0 1.49038658908e+34 1.1977e+34 0.803617000297 1.49038658908e+34 1.1977e+34 5.55991731349 5.55991731349
12 0.22 22.2404666667 105.376 0.00833333333332 0.00783333333332 0.15 1.35771663014e+34 1.10807e+34 0.816127589073 1.35771663014e+34 1.10807e+34 5.55991731349 5.55991731349
12 0.22 19.2718666667 94.4244 0.00833333333332 0.00783333333332 0.3 1.30759291083e+34 1.04275e+34 0.797457673075 1.30759291083e+34 1.04275e+34 4.59497298635 4.59497298635
