12 0.07 0.936144 33.8862 0.00833333333332 0.00783333333332 0.0 1.18675856608e+32 1.13911e+32 0.959849823341 1.18675856608e+32 1.13911e+32 1.1 1.0
12 0.07 0.900712 32.6239 0.00833333333332 0.00783333333332 0.15 1.0949921302e+32 1.05231e+32 0.961020605516 1.0949921302e+32 1.05231e+32 1.1 1.0
12 0.07 0.796732 28.8117 0.00833333333332 0.00783333333332 0.3 8.4502407158e+31 8.16435e+31 0.966167742977 8.4502407158e+31 8.16435e+31 1.1 1.0
12 0.08 1.302192 41.0182 0.00833333333332 0.00783333333332 0.0 2.46099735187e+32 2.30896e+32 0.938221245238 2.46099735187e+32 2.30896e+32 1.1 1.0
12 0.08 1.251728 39.532 0.00833333333332 0.00783333333332 0.15 2.22782416585e+32 2.091e+32 0.938583947536 2.22782416585e+32 2.091e+32 1.1 1.0
12 0.08 1.103824 35.0366 0.00833333333332 0.00783333333332 0.3 1.67436595428e+32 1.59182e+32 0.950700171567 1.67436595428e+32 1.59182e+32 1.1 1.0
12 0.09 1.74884 48.3113 0.00833333333332 0.00783333333332 0.0 4.8067876801e+32 4.35508e+32 0.906027120364 4.8067876801e+32 4.35508e+32 1.1 1.0
12 0.09 1.67972 46.6005 0.00833333333332 0.00783333333332 0.15 4.4094757964e+32 4.01959e+32 0.911580012137 4.4094757964e+32 4.01959e+32 1.1 1.0
12 0.09 1.477368 41.4208 0.00833333333332 0.00783333333332 0.3 3.25792589578e+32 3.00938e+32 0.923710390067 3.25792589578e+32 3.00938e+32 1.1 1.0
12 0.1 2.28328 55.7291 0.00833333333332 0.00783333333332 0.0 8.8251134351e+32 7.7009e+32 0.87261201305 8.8251134351e+32 7.7009e+32 1.1 1.0
12 0.1 2.191532 53.7931 0.00833333333332 0.00783333333332 0.15 8.0582631932e+32 7.07472e+32 0.877946007766 8.0582631932e+32 7.07472e+32 1.1 1.0
12 0.1 1.923172 47.9273 0.00833333333332 0.00783333333332 0.3 6.0614659687e+32 5.38943e+32 0.889129795965 6.0614659687e+32 5.38943e+32 1.1 1.0
12 0.11 2.912564 63.2477 0.00833333333332 0.00783333333332 0.0 1.50064135082e+33 1.2596e+33 0.839374444341 1.50064135082e+33 1.2596e+33 1.1 1.0
12 0.11 2.79388 61.0853 0.00833333333332 0.00783333333332 0.15 1.3705518193e+33 1.15641e+33 0.843755036268 1.3705518193e+33 1.15641e+33 1.1 1.0
12 0.11 2.446968 54.5311 0.00833333333332 0.00783333333332 0.3 1.03307051e+33 8.84381e+32 0.856070317988 1.03307051e+33 8.84381e+32 1.1 1.0
12 0.12 3.64362 70.8506 0.00833333333332 0.00783333333332 0.0 2.35327980682e+33 1.88592e+33 0.801400664101 2.35327980682e+33 1.88592e+33 1.1 1.0
12 0.12 3.493352 68.4603 0.00833333333332 0.00783333333332 0.15 2.17897805515e+33 1.75764e+33 0.806635016744 2.17897805515e+33 1.75764e+33 1.1 1.0
12 0.12 3.054372 61.2144 0.00833333333332 0.00783333333332 0.3 1.66190129705e+33 1.36315e+33 0.820235234439 1.66190129705e+33 1.36315e+33 1.1 1.0
12 0.13 4.48324 78.5267 0.00833333333332 0.00783333333332 0.0 3.54022054783e+33 2.69978e+33 0.762602206141 3.54022054783e+33 2.69978e+33 1.1 1.0
12 0.13 4.2964 75.9069 0.00833333333332 0.00783333333332 0.15 3.28181485797e+33 2.53556e+33 0.772609092753 3.28181485797e+33 2.53556e+33 1.1 1.0
12 0.13 3.750916 67.965 0.00833333333332 0.00783333333332 0.3 2.53162411975e+33 1.99864e+33 0.789469488937 2.53162411975e+33 1.99864e+33 1.1 1.0
12 0.14 5.43804 86.2691 0.00833333333332 0.00783333333332 0.0 5.2983118286e+33 3.82184e+33 0.721331647445 5.2983118286e+33 3.82184e+33 1.1 1.0
12 0.14 5.2094 83.4175 0.00833333333332 0.00783333333332 0.15 4.8036335791e+33 3.51483e+33 0.731702354504 4.8036335791e+33 3.51483e+33 1.1 1.0
12 0.14 4.54204 74.7741 0.00833333333332 0.00783333333332 0.3 3.72895850791e+33 2.80515e+33 0.752260984951 3.72895850791e+33 2.80515e+33 1.1 1.0
12 0.15 6.51448 94.0735 0.00833333333332 0.00783333333332 0.0 7.471783854e+33 4.99327e+33 0.668283518042 7.471783854e+33 4.99327e+33 1.1 1.0
12 0.15 6.23848 90.9874 0.00833333333332 0.00783333333332 0.15 6.8245649715e+33 4.64469e+33 0.680584040067 6.8245649715e+33 4.64469e+33 1.1 1.0
12 0.15 5.43304 81.636 0.00833333333332 0.00783333333332 0.3 5.2926366862e+33 3.80534e+33 0.718987571908 5.2926366862e+33 3.80534e+33 1.1 1.0
12 0.16 7.71884 101.938 0.00833333333332 0.00783333333332 0.0 1.05841971402e+34 6.50401e+33 0.614501970612 1.05841971402e+34 6.50401e+33 1.1 1.0
12 0.16 7.38972 98.6143 0.00833333333332 0.00783333333332 0.15 9.7404162766e+33 6.07296e+33 0.623480540004 9.7404162766e+33 6.07296e+33 1.1 1.0
12 0.16 6.42916 88.5468 0.00833333333332 0.00783333333332 0.3 7.45096625e+33 4.95793e+33 0.665407657698 7.45096625e+33 4.95793e+33 1.1 1.0
12 0.17 9.0572 109.864 0.00833333333332 0.00783333333332 0.0 1.15025201462e+34 7.29678e+33 0.634363592261 1.15025201462e+34 7.29678e+33 1.331 1.21
12 0.17 8.66884 106.298 0.00833333333332 0.00783333333332 0.15 1.06445333746e+34 6.90112e+33 0.648325272432 1.06445333746e+34 6.90112e+33 1.331 1.21
12 0.17 7.53552 95.5043 0.00833333333332 0.00783333333332 0.3 1.03015935625e+34 6.3828e+33 0.619593460106 1.03015935625e+34 6.3828e+33 1.1 1.0
12 0.18 10.53536 117.852 0.00833333333332 0.00783333333332 0.0 1.2237500532e+34 8.00058e+33 0.653775661058 1.2237500532e+34 8.00058e+33 1.61051 1.4641
12 0.18 10.08156 114.039 0.00833333333332 0.00783333333332 0.15 1.14795318977e+34 7.6208e+33 0.663859821804 1.14795318977e+34 7.6208e+33 1.61051 1.4641
12 0.18 8.757 102.508 0.00833333333332 0.00783333333332 0.3 1.1085558942e+34 7.06416e+33 0.637239857454 1.1085558942e+34 7.06416e+33 1.331 1.21
12 0.19 12.15872 125.909 0.00833333333332 0.00783333333332 0.0 1.3224431682e+34 8.8939e+33 0.67253551713 1.3224431682e+34 8.8939e+33 1.9487171 1.771561
12 0.19 11.63312 121.842 0.00833333333332 0.00783333333332 0.15 1.20150330134e+34 8.2654e+33 0.687921538857 1.20150330134e+34 8.2654e+33 1.9487171 1.771561
12 0.19 10.09848 109.558 0.00833333333332 0.00783333333332 0.3 1.16107374738e+34 7.6996e+33 0.663144784504 1.16107374738e+34 7.6996e+33 1.61051 1.4641
12 0.2 13.93232 134.041 0.00833333333332 0.00783333333332 0.0 1.3463640483e+34 9.46732e+33 0.703176827393 1.3463640483e+34 9.46732e+33 2.357947691 2.14358881
12 0.2 13.32852 129.712 0.00833333333332 0.00783333333332 0.15 1.40510471932e+34 9.55727e+33 0.680182043985 1.40510471932e+34 9.55727e+33 2.14358881 1.9487171
12 0.2 11.56448 116.657 0.00833333333332 0.00783333333332 0.3 1.35065914514e+34 8.84848e+33 0.655123095404 1.35065914514e+34 8.84848e+33 1.771561 1.61051
12 0.21 15.86048 142.258 0.00833333333332 0.00783333333332 0.0 1.55133872271e+34 1.0793e+34 0.695721691337 1.55133872271e+34 1.0793e+34 2.5937424601 2.357947691
12 0.21 15.17224 137.657 0.00833333333332 0.00783333333332 0.15 1.44187669378e+34 1.02233e+34 0.70902734222 1.44187669378e+34 1.02233e+34 2.5937424601 2.357947691
12 0.21 13.15936 123.807 0.00833333333332 0.00783333333332 0.3 1.39646735321e+34 9.50284e+33 0.680491382642 1.39646735321e+34 9.50284e+33 2.14358881 1.9487171
12 0.22 17.94696 150.576 0.00833333333332 0.00783333333332 0.0 1.57986145061e+34 1.13825e+34 0.720474570451 1.57986145061e+34 1.13825e+34 3.13842837672 2.85311670611
12 0.22 17.16816 145.689 0.00833333333332 0.00783333333332 0.15 1.62744135912e+34 1.14076e+34 0.700953059603 1.62744135912e+34 1.14076e+34 2.85311670611 2.5937424601
12 0.22 14.88728 131.014 0.00833333333332 0.00783333333332 0.3 1.57785638884e+34 1.06582e+34 0.675486062951 1.57785638884e+34 1.06582e+34 2.357947691 2.14358881
