12 0.07 1.132476 22.8199 0.00833333333332 0.00783333333332 0.0 1.52656172177e+32 1.4489e+32 0.949126379456 1.52656172177e+32 1.4489e+32 1.1 1.0
12 0.07 1.091046 21.8931 0.00833333333332 0.00783333333332 0.15 1.42223995098e+32 1.35238e+32 0.95088033427 1.42223995098e+32 1.35238e+32 1.1 1.0
12 0.07 0.969396 19.1119 0.00833333333332 0.00783333333332 0.3 1.1161232265e+32 1.0653e+32 0.954464502401 1.1161232265e+32 1.0653e+32 1.1 1.0
12 0.08 1.563654 27.967 0.00833333333332 0.00783333333332 0.0 3.14007202978e+32 2.89439e+32 0.921759110157 3.14007202978e+32 2.89439e+32 1.1 1.0
12 0.08 1.504848 26.8647 0.00833333333332 0.00783333333332 0.15 2.83225914095e+32 2.62377e+32 0.926387688917 2.83225914095e+32 2.62377e+32 1.1 1.0
12 0.08 1.332444 23.5489 0.00833333333332 0.00783333333332 0.3 2.14271145978e+32 2.00614e+32 0.936262318869 2.14271145978e+32 2.00614e+32 1.1 1.0
12 0.09 2.087424 33.2814 0.00833333333332 0.00783333333332 0.0 6.0332761692e+32 5.37643e+32 0.891129437675 6.0332761692e+32 5.37643e+32 1.1 1.0
12 0.09 2.00706 32.0033 0.00833333333332 0.00783333333332 0.15 5.4927072644e+32 4.9036e+32 0.892747376468 5.4927072644e+32 4.9036e+32 1.1 1.0
12 0.09 1.77177 28.1516 0.00833333333332 0.00783333333332 0.3 4.0981195927e+32 3.7265e+32 0.909319485609 4.0981195927e+32 3.7265e+32 1.1 1.0
12 0.1 2.712054 38.7254 0.00833333333332 0.00783333333332 0.0 1.14005373356e+33 9.60126e+32 0.842176093755 1.14005373356e+33 9.60126e+32 1.1 1.0
12 0.1 2.605542 37.2714 0.00833333333332 0.00783333333332 0.15 1.0336706293e+33 8.78379e+32 0.849766816529 1.0336706293e+33 8.78379e+32 1.1 1.0
12 0.1 2.294034 32.8835 0.00833333333332 0.00783333333332 0.3 7.4843040774e+32 6.54122e+32 0.873991747576 7.4843040774e+32 6.54122e+32 1.1 1.0
12 0.11 3.44571 44.2725 0.00833333333332 0.00783333333332 0.0 1.97159914402e+33 1.58665e+33 0.804752834679 1.97159914402e+33 1.58665e+33 1.1 1.0
12 0.11 3.308052 42.6424 0.00833333333332 0.00783333333332 0.15 1.798127253e+33 1.45567e+33 0.809547821252 1.798127253e+33 1.45567e+33 1.1 1.0
12 0.11 2.905812 37.718 0.00833333333332 0.00783333333332 0.3 1.33980723757e+33 1.11744e+33 0.834030425173 1.33980723757e+33 1.11744e+33 1.1 1.0
12 0.12 4.296432 49.9034 0.00833333333332 0.00783333333332 0.0 3.19737214588e+33 2.44238e+33 0.763871044272 3.19737214588e+33 2.44238e+33 1.1 1.0
12 0.12 4.122234 48.0969 0.00833333333332 0.00783333333332 0.15 2.90699559112e+33 2.24179e+33 0.771170760234 2.90699559112e+33 2.24179e+33 1.1 1.0
12 0.12 3.613596 42.6357 0.00833333333332 0.00783333333332 0.3 2.20864911072e+33 1.75031e+33 0.792479888048 2.20864911072e+33 1.75031e+33 1.1 1.0
12 0.13 5.27217 55.6041 0.00833333333332 0.00783333333332 0.0 4.8351179881e+33 3.47989e+33 0.719711495886 4.8351179881e+33 3.47989e+33 1.1 1.0
12 0.13 5.055642 53.6209 0.00833333333332 0.00783333333332 0.15 4.4935488198e+33 3.28225e+33 0.73043603878 4.4935488198e+33 3.28225e+33 1.1 1.0
12 0.13 4.423794 47.622 0.00833333333332 0.00783333333332 0.3 3.3993757823e+33 2.56299e+33 0.753959010164 3.3993757823e+33 2.56299e+33 1.1 1.0
12 0.14 6.38076 61.3643 0.00833333333332 0.00783333333332 0.0 7.0789803316e+33 4.85084e+33 0.685245582382 7.0789803316e+33 4.85084e+33 1.1 1.0
12 0.14 6.11574 59.2037 0.00833333333332 0.00783333333332 0.15 6.6213918951e+33 4.55705e+33 0.688231428104 6.6213918951e+33 4.55705e+33 1.1 1.0
12 0.14 5.342754 52.6659 0.00833333333332 0.00783333333332 0.3 5.0480451576e+33 3.59395e+33 0.711948860954 5.0480451576e+33 3.59395e+33 1.1 1.0
12 0.15 7.6299 67.1763 0.00833333333332 0.00783333333332 0.0 1.01898323136e+34 6.43452e+33 0.631464758396 1.01898323136e+34 6.43452e+33 1.1 1.0
12 0.15 7.30986 64.8376 0.00833333333332 0.00783333333332 0.15 9.4903092811e+33 6.13144e+33 0.646073780989 9.4903092811e+33 6.13144e+33 1.1 1.0
12 0.15 6.37674 57.7594 0.00833333333332 0.00783333333332 0.3 7.2132011854e+33 4.88408e+33 0.677102977508 7.2132011854e+33 4.88408e+33 1.1 1.0
12 0.16 9.0273 73.0344 0.00833333333332 0.00783333333332 0.0 1.45356643016e+34 8.45396e+33 0.581601213717 1.45356643016e+34 8.45396e+33 1.1 1.0
12 0.16 8.64528 70.5168 0.00833333333332 0.00783333333332 0.15 1.31596882788e+34 7.78586e+33 0.591644713389 1.31596882788e+34 7.78586e+33 1.1 1.0
12 0.16 7.53192 62.896 0.00833333333332 0.00783333333332 0.3 1.00115199272e+34 6.31849e+33 0.631121952106 1.00115199272e+34 6.31849e+33 1.1 1.0
12 0.17 10.58034 78.9347 0.00833333333332 0.00783333333332 0.0 1.81792089282e+34 1.01609e+34 0.558929711415 2.0024870384e+34 1.06072e+34 1.21 1.0
12 0.17 10.12908 76.237 0.00833333333332 0.00783333333332 0.15 1.63794279959e+34 9.42137e+33 0.575195300004 1.8516588917e+34 1.00168e+34 1.21 1.0
12 0.17 8.81442 68.071 0.00833333333332 0.00783333333332 0.3 1.40180304112e+34 8.22349e+33 0.586636621464 1.40180304112e+34 8.22349e+33 1.1 1.0
12 0.18 12.29646 84.8741 0.00833333333332 0.00783333333332 0.0 2.15435037552e+34 1.18654e+34 0.550764635819 2.73599862813e+34 1.29655e+34 1.331 1.0
12 0.18 11.7684 81.9951 0.00833333333332 0.00783333333332 0.15 1.9749019373e+34 1.10678e+34 0.56042276282 2.47735669008e+34 1.20417e+34 1.331 1.0
12 0.18 10.2303 73.2809 0.00833333333332 0.00783333333332 0.3 1.68866664907e+34 9.69096e+33 0.573882358921 1.89538275132e+34 1.01589e+34 1.21 1.0
12 0.19 14.18286 90.8509 0.00833333333332 0.00783333333332 0.0 2.28872110828e+34 1.30386e+34 0.569689332301 3.61482696932e+34 1.55121e+34 1.61051 1.0
12 0.19 13.57008 87.789 0.00833333333332 0.00783333333332 0.15 2.12311266925e+34 1.24907e+34 0.588320166937 3.34929680415e+34 1.46442e+34 1.61051 1.0
12 0.19 11.78544 78.5228 0.00833333333332 0.00783333333332 0.3 2.04682011462e+34 1.15088e+34 0.56227706176 2.51925913376e+34 1.23268e+34 1.331 1.0
12 0.2 16.24668 96.864 0.00833333333332 0.00783333333332 0.0 2.689857824e+34 1.50723e+34 0.560338166037 4.8435900088e+34 1.80227e+34 1.771561 1.0
12 0.2 15.5409 93.6173 0.00833333333332 0.00783333333332 0.15 2.48246079972e+34 1.41509e+34 0.570035184507 4.40065917832e+34 1.72958e+34 1.771561 1.0
12 0.2 13.48572 83.7948 0.00833333333332 0.00783333333332 0.3 2.08491957788e+34 1.21436e+34 0.582449324609 3.37944852241e+34 1.48028e+34 1.61051 1.0
12 0.21 18.49476 102.913 0.00833333333332 0.00783333333332 0.0 3.0892907092e+34 1.72294e+34 0.557713780341 5.9794176707e+34 2.02456e+34 1.9487171 1.0
12 0.21 17.68758 99.4796 0.00833333333332 0.00783333333332 0.15 2.87461365655e+34 1.64195e+34 0.571189800152 5.0014672328e+34 1.93959e+34 1.9487171 1.1
12 0.21 15.3369 89.0956 0.00833333333332 0.00783333333332 0.3 2.40542229424e+34 1.38651e+34 0.576410222571 4.40492045588e+34 1.73468e+34 1.771561 1.0
12 0.22 20.93382 108.999 0.00833333333332 0.00783333333332 0.0 3.13930386058e+34 1.82602e+34 0.581663987016 7.1675125539e+34 2.35525e+34 2.357947691 1.1
12 0.22 20.01642 105.376 0.00833333333332 0.00783333333332 0.15 3.253942105e+34 1.82601e+34 0.561168558345 6.5064378356e+34 2.19162e+34 2.14358881 1.1
12 0.22 17.34468 94.4244 0.00833333333332 0.00783333333332 0.3 2.79715069296e+34 1.59792e+34 0.571267041144 5.6362806447e+34 1.97507e+34 1.9487171 1.0
