# FieldProfileFile, power=50.6791[MW], beamCurrent=0[A]
# AccelStructure_CLICG
# z[m] E_z[MV/m] E_surf[MV/m] H_surf[kA/m] Sc[W/um^2] P[MW] P/c[MW/mm]
0 106.133 206.96 435.147 4.61836 50.6791 2.56058
0.000434111 106.156 206.998 435.134 4.61741 50.6185 2.55882
0.000868222 106.179 207.036 435.121 4.61646 50.558 2.55706
0.00130233 106.202 207.074 435.108 4.6155 50.4974 2.5553
0.00173644 106.224 207.112 435.094 4.61454 50.4369 2.55354
0.00217056 106.247 207.15 435.081 4.61358 50.3764 2.55178
0.00260467 106.27 207.187 435.067 4.61261 50.3158 2.55001
0.00303878 106.292 207.225 435.053 4.61164 50.2553 2.54825
0.00347289 106.315 207.262 435.039 4.61067 50.1948 2.54648
0.003907 106.337 207.3 435.024 4.60969 50.1343 2.54471
0.00434111 106.36 207.337 435.01 4.60871 50.0738 2.54294
0.00477522 106.382 207.374 434.995 4.60773 50.0133 2.54117
0.00520933 106.405 207.411 434.98 4.60674 49.9528 2.53939
0.00564345 106.427 207.448 434.965 4.60575 49.8923 2.53762
0.00607756 106.449 207.485 434.949 4.60475 49.8318 2.53584
0.00651167 106.472 207.522 434.934 4.60376 49.7713 2.53406
0.00694578 106.494 207.559 434.918 4.60275 49.7108 2.53228
0.00737989 106.516 207.595 434.902 4.60175 49.6503 2.5305
0.007814 106.538 207.632 434.886 4.60074 49.5899 2.52871
0.00824811 106.56 207.668 434.869 4.59973 49.5294 2.52693
0.00868222 106.583 207.704 434.853 4.59871 49.4689 2.52514
0.00911633 106.605 207.741 434.836 4.59769 49.4085 2.52335
0.00955045 106.627 207.777 434.819 4.59667 49.348 2.52156
0.00998456 106.649 207.813 434.802 4.59564 49.2876 2.51977
0.0104187 106.671 207.849 434.784 4.59461 49.2272 2.51798
0.0108528 106.692 207.885 434.767 4.59358 49.1667 2.51618
0.0112869 106.714 207.92 434.749 4.59254 49.1063 2.51439
0.011721 106.736 207.956 434.731 4.5915 49.0459 2.51259
0.0121551 106.758 207.992 434.712 4.59046 48.9855 2.51079
0.0125892 106.78 208.027 434.694 4.58941 48.9251 2.50899
0.0130233 106.801 208.062 434.675 4.58836 48.8647 2.50719
0.0134574 106.823 208.098 434.656 4.5873 48.8043 2.50538
0.0138916 106.845 208.133 434.637 4.58624 48.7439 2.50358
0.0143257 106.866 208.168 434.618 4.58518 48.6835 2.50177
0.0147598 106.888 208.203 434.599 4.58412 48.6231 2.49996
0.0151939 106.909 208.238 434.579 4.58305 48.5628 2.49815
0.015628 106.931 208.273 434.559 4.58197 48.5024 2.49634
0.0160621 106.952 208.307 434.539 4.5809 48.442 2.49453
0.0164962 106.974 208.342 434.519 4.57982 48.3817 2.49271
0.0169303 106.995 208.376 434.498 4.57873 48.3213 2.4909
0.0173644 107.016 208.411 434.477 4.57765 48.261 2.48908
0.0177986 107.038 208.445 434.457 4.57655 48.2007 2.48726
0.0182327 107.059 208.479 434.435 4.57546 48.1403 2.48544
0.0186668 107.08 208.513 434.414 4.57436 48.08 2.48361
0.0191009 107.101 208.547 434.392 4.57326 48.0197 2.48179
0.019535 107.122 208.581 434.371 4.57215 47.9594 2.47996
0.0199691 107.143 208.615 434.349 4.57104 47.8991 2.47814
0.0204032 107.164 208.648 434.327 4.56993 47.8388 2.47631
0.0208373 107.185 208.682 434.304 4.56881 47.7785 2.47448
0.0212714 107.206 208.715 434.281 4.56769 47.7182 2.47265
0.0217056 107.227 208.749 434.259 4.56657 47.6579 2.47081
0.0221397 107.248 208.782 434.236 4.56544 47.5977 2.46898
0.0225738 107.269 208.815 434.212 4.56431 47.5374 2.46714
0.0230079 107.289 208.848 434.189 4.56318 47.4771 2.4653
0.023442 107.31 208.881 434.165 4.56204 47.4169 2.46346
0.0238761 107.331 208.914 434.141 4.56089 47.3567 2.46162
0.0243102 107.351 208.947 434.117 4.55975 47.2964 2.45978
0.0247443 107.372 208.979 434.093 4.5586 47.2362 2.45793
0.0251784 107.393 209.012 434.068 4.55744 47.176 2.45609
0.0256126 107.413 209.044 434.043 4.55629 47.1158 2.45424
0.0260467 107.434 209.077 434.019 4.55513 47.0556 2.45239
0.0264808 107.454 209.109 433.993 4.55396 46.9954 2.45054
0.0269149 107.474 209.141 433.968 4.55279 46.9352 2.44869
0.027349 107.495 209.173 433.942 4.55162 46.875 2.44683
0.0277831 107.515 209.205 433.916 4.55044 46.8148 2.44498
0.0282172 107.535 209.237 433.89 4.54927 46.7546 2.44312
0.0286513 107.555 209.269 433.864 4.54808 46.6945 2.44126
0.0290854 107.575 209.3 433.837 4.54689 46.6343 2.4394
0.0295196 107.596 209.332 433.811 4.5457 46.5742 2.43754
0.0299537 107.616 209.363 433.784 4.54451 46.514 2.43567
0.0303878 107.636 209.394 433.757 4.54331 46.4539 2.43381
0.0308219 107.656 209.425 433.729 4.54211 46.3938 2.43194
0.031256 107.676 209.456 433.702 4.5409 46.3337 2.43008
0.0316901 107.695 209.487 433.674 4.53969 46.2736 2.42821
0.0321242 107.715 209.518 433.646 4.53848 46.2135 2.42633
0.0325583 107.735 209.549 433.617 4.53726 46.1534 2.42446
0.0329924 107.755 209.58 433.589 4.53604 46.0933 2.42259
0.0334266 107.774 209.61 433.56 4.53482 46.0332 2.42071
0.0338607 107.794 209.64 433.531 4.53359 45.9731 2.41883
0.0342948 107.814 209.671 433.502 4.53235 45.9131 2.41696
0.0347289 107.833 209.701 433.473 4.53112 45.853 2.41507
0.035163 107.853 209.731 433.443 4.52988 45.793 2.41319
0.0355971 107.872 209.761 433.413 4.52863 45.7329 2.41131
0.0360312 107.892 209.791 433.383 4.52739 45.6729 2.40942
0.0364653 107.911 209.82 433.353 4.52614 45.6129 2.40754
0.0368994 107.93 209.85 433.322 4.52488 45.5529 2.40565
0.0373336 107.95 209.88 433.291 4.52362 45.4929 2.40376
0.0377677 107.969 209.909 433.26 4.52236 45.4329 2.40187
0.0382018 107.988 209.938 433.229 4.52109 45.3729 2.39997
0.0386359 108.007 209.967 433.198 4.51982 45.3129 2.39808
0.03907 108.026 209.997 433.166 4.51854 45.253 2.39618
0.0395041 108.045 210.025 433.134 4.51727 45.193 2.39428
0.0399382 108.064 210.054 433.102 4.51598 45.1331 2.39239
0.0403723 108.083 210.083 433.07 4.5147 45.0731 2.39048
0.0408065 108.102 210.112 433.037 4.51341 45.0132 2.38858
0.0412406 108.121 210.14 433.004 4.51211 44.9533 2.38668
0.0416747 108.14 210.169 432.971 4.51082 44.8934 2.38477
0.0421088 108.159 210.197 432.938 4.50951 44.8334 2.38287
0.0425429 108.177 210.225 432.904 4.50821 44.7736 2.38096
0.042977 108.196 210.253 432.871 4.5069 44.7137 2.37905
0.0434111 108.215 210.281 432.837 4.50559 44.6538 2.37713
0.0438452 108.233 210.309 432.802 4.50427 44.5939 2.37522
0.0442793 108.252 210.336 432.768 4.50295 44.5341 2.37331
0.0447135 108.27 210.364 432.733 4.50162 44.4742 2.37139
0.0451476 108.288 210.391 432.698 4.50029 44.4144 2.36947
0.0455817 108.307 210.419 432.663 4.49896 44.3545 2.36755
0.0460158 108.325 210.446 432.628 4.49762 44.2947 2.36563
0.0464499 108.343 210.473 432.592 4.49628 44.2349 2.36371
0.046884 108.362 210.5 432.556 4.49494 44.1751 2.36178
0.0473181 108.38 210.527 432.52 4.49359 44.1153 2.35986
0.0477522 108.398 210.554 432.484 4.49224 44.0555 2.35793
0.0481863 108.416 210.58 432.447 4.49088 43.9958 2.356
0.0486205 108.434 210.607 432.41 4.48952 43.936 2.35407
0.0490546 108.452 210.633 432.373 4.48815 43.8762 2.35214
0.0494887 108.47 210.659 432.336 4.48678 43.8165 2.35021
0.0499228 108.488 210.686 432.298 4.48541 43.7568 2.34827
0.0503569 108.505 210.712 432.261 4.48404 43.697 2.34633
0.050791 108.523 210.738 432.223 4.48265 43.6373 2.3444
0.0512251 108.541 210.763 432.184 4.48127 43.5776 2.34246
0.0516592 108.559 210.789 432.146 4.47988 43.5179 2.34051
0.0520933 108.576 210.815 432.107 4.47849 43.4583 2.33857
0.0525275 108.594 210.84 432.068 4.47709 43.3986 2.33663
0.0529616 108.611 210.865 432.029 4.47569 43.3389 2.33468
0.0533957 108.629 210.891 431.989 4.47429 43.2793 2.33273
0.0538298 108.646 210.916 431.95 4.47288 43.2196 2.33078
0.0542639 108.663 210.941 431.91 4.47147 43.16 2.32883
0.054698 108.681 210.965 431.869 4.47005 43.1004 2.32688
0.0551321 108.698 210.99 431.829 4.46863 43.0408 2.32493
0.0555662 108.715 211.015 431.788 4.4672 42.9812 2.32297
0.0560003 108.732 211.039 431.747 4.46578 42.9216 2.32102
0.0564345 108.749 211.063 431.706 4.46434 42.862 2.31906
0.0568686 108.766 211.088 431.665 4.46291 42.8024 2.3171
0.0573027 108.783 211.112 431.623 4.46147 42.7429 2.31514
0.0577368 108.8 211.136 431.581 4.46002 42.6833 2.31317
0.0581709 108.817 211.16 431.539 4.45857 42.6238 2.31121
0.058605 108.834 211.183 431.497 4.45712 42.5643 2.30924
0.0590391 108.851 211.207 431.454 4.45566 42.5048 2.30727
0.0594732 108.867 211.23 431.411 4.4542 42.4453 2.30531
0.0599073 108.884 211.254 431.368 4.45274 42.3858 2.30333
0.0603415 108.9 211.277 431.324 4.45127 42.3263 2.30136
0.0607756 108.917 211.3 431.281 4.44979 42.2668 2.29939
0.0612097 108.933 211.323 431.237 4.44831 42.2074 2.29741
0.0616438 108.95 211.346 431.193 4.44683 42.148 2.29544
0.0620779 108.966 211.368 431.148 4.44535 42.0885 2.29346
0.062512 108.983 211.391 431.103 4.44386 42.0291 2.29148
0.0629461 108.999 211.413 431.058 4.44236 41.9697 2.2895
0.0633802 109.015 211.436 431.013 4.44086 41.9103 2.28751
0.0638143 109.031 211.458 430.968 4.43936 41.8509 2.28553
0.0642485 109.047 211.48 430.922 4.43786 41.7915 2.28354
0.0646826 109.063 211.502 430.876 4.43635 41.7322 2.28155
0.0651167 109.079 211.524 430.83 4.43483 41.6728 2.27956
0.0655508 109.095 211.545 430.784 4.43331 41.6135 2.27757
0.0659849 109.111 211.567 430.737 4.43179 41.5542 2.27558
0.066419 109.127 211.588 430.69 4.43026 41.4949 2.27359
0.0668531 109.143 211.609 430.643 4.42873 41.4356 2.27159
0.0672872 109.158 211.631 430.595 4.4272 41.3763 2.2696
0.0677213 109.174 211.652 430.547 4.42566 41.317 2.2676
0.0681555 109.189 211.672 430.499 4.42411 41.2577 2.2656
0.0685896 109.205 211.693 430.451 4.42256 41.1985 2.2636
0.0690237 109.22 211.714 430.403 4.42101 41.1392 2.26159
0.0694578 109.236 211.734 430.354 4.41945 41.08 2.25959
0.0698919 109.251 211.755 430.305 4.41789 41.0208 2.25758
0.070326 109.266 211.775 430.255 4.41633 40.9616 2.25557
0.0707601 109.282 211.795 430.206 4.41476 40.9024 2.25356
0.0711942 109.297 211.815 430.156 4.41319 40.8432 2.25155
0.0716283 109.312 211.835 430.106 4.41161 40.7841 2.24954
0.0720625 109.327 211.854 430.056 4.41003 40.7249 2.24753
0.0724966 109.342 211.874 430.005 4.40844 40.6658 2.24551
0.0729307 109.357 211.893 429.954 4.40685 40.6067 2.2435
0.0733648 109.372 211.913 429.903 4.40526 40.5476 2.24148
0.0737989 109.386 211.932 429.852 4.40366 40.4885 2.23946
0.074233 109.401 211.951 429.8 4.40206 40.4294 2.23744
0.0746671 109.416 211.97 429.748 4.40045 40.3703 2.23541
0.0751012 109.431 211.988 429.696 4.39884 40.3113 2.23339
0.0755353 109.445 212.007 429.643 4.39722 40.2522 2.23136
0.0759695 109.46 212.025 429.591 4.3956 40.1932 2.22934
0.0764036 109.474 212.044 429.538 4.39398 40.1342 2.22731
0.0768377 109.488 212.062 429.484 4.39235 40.0752 2.22528
0.0772718 109.503 212.08 429.431 4.39072 40.0162 2.22324
0.0777059 109.517 212.098 429.377 4.38908 39.9572 2.22121
0.07814 109.531 212.116 429.323 4.38744 39.8982 2.21918
0.0785741 109.545 212.133 429.269 4.38579 39.8393 2.21714
0.0790082 109.559 212.151 429.214 4.38414 39.7803 2.2151
0.0794423 109.573 212.168 429.159 4.38249 39.7214 2.21306
0.0798765 109.587 212.185 429.104 4.38083 39.6625 2.21102
0.0803106 109.601 212.202 429.048 4.37917 39.6036 2.20898
0.0807447 109.615 212.219 428.993 4.3775 39.5447 2.20693
0.0811788 109.629 212.236 428.937 4.37583 39.4859 2.20489
0.0816129 109.643 212.253 428.88 4.37415 39.427 2.20284
0.082047 109.656 212.269 428.824 4.37247 39.3682 2.20079
0.0824811 109.67 212.285 428.767 4.37079 39.3094 2.19874
0.0829152 109.683 212.302 428.71 4.3691 39.2506 2.19669
0.0833493 109.697 212.318 428.653 4.36741 39.1918 2.19464
0.0837835 109.71 212.334 428.595 4.36571 39.133 2.19258
0.0842176 109.723 212.349 428.537 4.36401 39.0742 2.19053
0.0846517 109.737 212.365 428.479 4.3623 39.0155 2.18847
0.0850858 109.75 212.38 428.421 4.36059 38.9567 2.18641
0.0855199 109.763 212.396 428.362 4.35887 38.898 2.18435
0.085954 109.776 212.411 428.303 4.35715 38.8393 2.18229
0.0863881 109.789 212.426 428.244 4.35543 38.7806 2.18022
0.0868222 109.802 212.441 428.184 4.3537 38.7219 2.17816
0.0872563 109.815 212.456 428.124 4.35197 38.6633 2.17609
0.0876905 109.828 212.47 428.064 4.35023 38.6046 2.17402
0.0881246 109.84 212.485 428.004 4.34849 38.546 2.17195
0.0885587 109.853 212.499 427.943 4.34675 38.4874 2.16988
0.0889928 109.866 212.513 427.882 4.345 38.4288 2.16781
0.0894269 109.878 212.527 427.821 4.34324 38.3702 2.16574
0.089861 109.891 212.541 427.759 4.34148 38.3116 2.16366
0.0902951 109.903 212.555 427.697 4.33972 38.2531 2.16158
0.0907292 109.916 212.569 427.635 4.33795 38.1946 2.1595
0.0911633 109.928 212.582 427.573 4.33618 38.136 2.15742
0.0915975 109.94 212.595 427.51 4.3344 38.0775 2.15534
0.0920316 109.952 212.608 427.447 4.33262 38.019 2.15326
0.0924657 109.964 212.621 427.384 4.33083 37.9606 2.15117
0.0928998 109.976 212.634 427.32 4.32904 37.9021 2.14909
0.0933339 109.988 212.647 427.257 4.32725 37.8437 2.147
0.093768 110 212.659 427.193 4.32545 37.7852 2.14491
0.0942021 110.012 212.672 427.128 4.32365 37.7268 2.14282
0.0946362 110.024 212.684 427.063 4.32184 37.6684 2.14073
0.0950703 110.035 212.696 426.998 4.32002 37.61 2.13864
0.0955045 110.047 212.708 426.933 4.31821 37.5517 2.13654
0.0959386 110.058 212.72 426.868 4.31639 37.4933 2.13444
0.0963727 110.07 212.731 426.802 4.31456 37.435 2.13235
0.0968068 110.081 212.743 426.736 4.31273 37.3767 2.13025
0.0972409 110.093 212.754 426.669 4.31089 37.3184 2.12815
0.097675 110.104 212.765 426.603 4.30905 37.2601 2.12604
0.0981091 110.115 212.776 426.536 4.30721 37.2018 2.12394
0.0985432 110.126 212.787 426.468 4.30536 37.1436 2.12184
0.0989773 110.137 212.798 426.401 4.30351 37.0854 2.11973
0.0994115 110.148 212.808 426.333 4.30165 37.0272 2.11762
0.0998456 110.159 212.819 426.265 4.29979 36.969 2.11551
0.10028 110.17 212.829 426.196 4.29792 36.9108 2.1134
0.100714 110.181 212.839 426.127 4.29605 36.8526 2.11129
0.101148 110.191 212.849 426.058 4.29417 36.7945 2.10917
0.101582 110.202 212.859 425.989 4.29229 36.7363 2.10706
0.102016 110.212 212.868 425.919 4.29041 36.6782 2.10494
0.10245 110.223 212.878 425.849 4.28852 36.6201 2.10282
0.102884 110.233 212.887 425.779 4.28662 36.5621 2.1007
0.103318 110.244 212.896 425.709 4.28472 36.504 2.09858
0.103753 110.254 212.905 425.638 4.28282 36.446 2.09646
0.104187 110.264 212.914 425.567 4.28091 36.3879 2.09434
0.104621 110.274 212.923 425.495 4.279 36.3299 2.09221
0.105055 110.284 212.931 425.423 4.27708 36.2719 2.09008
0.105489 110.294 212.939 425.351 4.27516 36.214 2.08795
0.105923 110.304 212.948 425.279 4.27323 36.156 2.08582
0.106357 110.314 212.956 425.206 4.2713 36.0981 2.08369
0.106791 110.324 212.963 425.133 4.26937 36.0402 2.08156
0.107225 110.333 212.971 425.06 4.26743 35.9823 2.07943
0.10766 110.343 212.979 424.987 4.26548 35.9244 2.07729
0.108094 110.353 212.986 424.913 4.26353 35.8665 2.07515
0.108528 110.362 212.993 424.838 4.26158 35.8087 2.07302
0.108962 110.371 213 424.764 4.25962 35.7509 2.07088
0.109396 110.381 213.007 424.689 4.25766 35.6931 2.06873
0.10983 110.39 213.014 424.614 4.25569 35.6353 2.06659
0.110264 110.399 213.02 424.539 4.25371 35.5775 2.06445
0.110698 110.408 213.027 424.463 4.25174 35.5197 2.0623
0.111132 110.417 213.033 424.387 4.24975 35.462 2.06015
0.111567 110.426 213.039 424.311 4.24777 35.4043 2.05801
0.112001 110.435 213.045 424.234 4.24578 35.3466 2.05586
0.112435 110.444 213.05 424.157 4.24378 35.2889 2.0537
0.112869 110.452 213.056 424.08 4.24178 35.2313 2.05155
0.113303 110.461 213.061 424.002 4.23977 35.1736 2.0494
0.113737 110.47 213.067 423.924 4.23776 35.116 2.04724
0.114171 110.478 213.072 423.846 4.23575 35.0584 2.04508
0.114605 110.486 213.076 423.768 4.23373 35.0008 2.04293
0.115039 110.495 213.081 423.689 4.2317 34.9433 2.04077
0.115474 110.503 213.086 423.61 4.22967 34.8857 2.0386
0.115908 110.511 213.09 423.53 4.22764 34.8282 2.03644
0.116342 110.519 213.094 423.45 4.2256 34.7707 2.03428
0.116776 110.527 213.098 423.37 4.22356 34.7132 2.03211
0.11721 110.535 213.102 423.29 4.22151 34.6558 2.02995
0.117644 110.543 213.106 423.209 4.21946 34.5983 2.02778
0.118078 110.551 213.109 423.128 4.2174 34.5409 2.02561
0.118512 110.558 213.113 423.047 4.21534 34.4835 2.02344
0.118946 110.566 213.116 422.965 4.21327 34.4261 2.02126
0.119381 110.574 213.119 422.883 4.2112 34.3687 2.01909
0.119815 110.581 213.122 422.801 4.20912 34.3114 2.01691
0.120249 110.588 213.124 422.718 4.20704 34.2541 2.01474
0.120683 110.596 213.127 422.635 4.20495 34.1968 2.01256
0.121117 110.603 213.129 422.552 4.20286 34.1395 2.01038
0.121551 110.61 213.131 422.469 4.20076 34.0822 2.0082
0.121985 110.617 213.133 422.385 4.19866 34.025 2.00602
0.122419 110.624 213.135 422.3 4.19656 33.9677 2.00383
0.122853 110.631 213.137 422.216 4.19445 33.9105 2.00165
0.123288 110.638 213.138 422.131 4.19233 33.8534 1.99946
0.123722 110.645 213.139 422.046 4.19021 33.7962 1.99727
0.124156 110.651 213.14 421.96 4.18809 33.7391 1.99509
0.12459 110.658 213.141 421.874 4.18596 33.6819 1.9929
0.125024 110.664 213.142 421.788 4.18382 33.6249 1.9907
0.125458 110.671 213.142 421.702 4.18168 33.5678 1.98851
0.125892 110.677 213.143 421.615 4.17954 33.5107 1.98632
0.126326 110.683 213.143 421.528 4.17739 33.4537 1.98412
0.12676 110.689 213.143 421.44 4.17523 33.3967 1.98192
0.127195 110.695 213.143 421.352 4.17308 33.3397 1.97972
0.127629 110.701 213.142 421.264 4.17091 33.2827 1.97752
0.128063 110.707 213.142 421.176 4.16874 33.2258 1.97532
0.128497 110.713 213.141 421.087 4.16657 33.1688 1.97312
0.128931 110.719 213.14 420.998 4.16439 33.1119 1.97092
0.129365 110.724 213.139 420.908 4.16221 33.055 1.96871
0.129799 110.73 213.138 420.818 4.16002 32.9982 1.9665
0.130233 110.736 213.136 420.728 4.15783 32.9413 1.9643
0.130667 110.741 213.135 420.638 4.15563 32.8845 1.96209
0.131102 110.746 213.133 420.547 4.15343 32.8277 1.95987
0.131536 110.751 213.131 420.456 4.15122 32.771 1.95766
0.13197 110.757 213.129 420.364 4.14901 32.7142 1.95545
0.132404 110.762 213.127 420.273 4.14679 32.6575 1.95323
0.132838 110.767 213.124 420.18 4.14457 32.6008 1.95102
0.133272 110.771 213.121 420.088 4.14234 32.5441 1.9488
0.133706 110.776 213.118 419.995 4.14011 32.4874 1.94658
0.13414 110.781 213.115 419.902 4.13787 32.4308 1.94436
0.134574 110.786 213.112 419.808 4.13563 32.3742 1.94214
0.135009 110.79 213.108 419.715 4.13338 32.3176 1.93992
0.135443 110.795 213.105 419.62 4.13113 32.261 1.93769
0.135877 110.799 213.101 419.526 4.12887 32.2045 1.93547
0.136311 110.803 213.097 419.431 4.12661 32.1479 1.93324
0.136745 110.807 213.093 419.336 4.12434 32.0914 1.93101
0.137179 110.811 213.088 419.24 4.12207 32.035 1.92878
0.137613 110.815 213.084 419.144 4.11979 31.9785 1.92655
0.138047 110.819 213.079 419.048 4.11751 31.9221 1.92432
0.138481 110.823 213.074 418.952 4.11522 31.8657 1.92209
0.138916 110.827 213.069 418.855 4.11293 31.8093 1.91985
0.13935 110.831 213.063 418.757 4.11063 31.7529 1.91762
0.139784 110.834 213.058 418.66 4.10833 31.6966 1.91538
0.140218 110.838 213.052 418.562 4.10602 31.6403 1.91314
0.140652 110.841 213.046 418.463 4.10371 31.584 1.9109
0.141086 110.844 213.04 418.365 4.10139 31.5277 1.90866
0.14152 110.847 213.034 418.266 4.09907 31.4714 1.90642
0.141954 110.851 213.027 418.166 4.09674 31.4152 1.90417
0.142388 110.854 213.021 418.067 4.09441 31.359 1.90193
0.142823 110.856 213.014 417.967 4.09208 31.3029 1.89968
0.143257 110.859 213.007 417.866 4.08973 31.2467 1.89744
0.143691 110.862 212.999 417.765 4.08739 31.1906 1.89519
0.144125 110.865 212.992 417.664 4.08503 31.1345 1.89294
0.144559 110.867 212.984 417.563 4.08268 31.0784 1.89069
0.144993 110.87 212.976 417.461 4.08031 31.0224 1.88843
0.145427 110.872 212.968 417.359 4.07795 30.9663 1.88618
0.145861 110.874 212.96 417.256 4.07557 30.9103 1.88392
0.146295 110.877 212.951 417.153 4.07319 30.8544 1.88167
0.14673 110.879 212.943 417.05 4.07081 30.7984 1.87941
0.147164 110.881 212.934 416.947 4.06842 30.7425 1.87715
0.147598 110.883 212.925 416.843 4.06603 30.6866 1.87489
0.148032 110.884 212.916 416.738 4.06363 30.6307 1.87263
0.148466 110.886 212.906 416.634 4.06123 30.5749 1.87037
0.1489 110.888 212.896 416.529 4.05882 30.519 1.8681
0.149334 110.889 212.887 416.423 4.05641 30.4632 1.86584
0.149768 110.891 212.876 416.318 4.05399 30.4075 1.86357
0.150202 110.892 212.866 416.211 4.05157 30.3517 1.8613
0.150637 110.893 212.856 416.105 4.04914 30.296 1.85903
0.151071 110.894 212.845 415.998 4.0467 30.2403 1.85676
0.151505 110.895 212.834 415.891 4.04426 30.1846 1.85449
0.151939 110.896 212.823 415.783 4.04182 30.129 1.85222
0.152373 110.897 212.812 415.675 4.03937 30.0733 1.84995
0.152807 110.898 212.8 415.567 4.03692 30.0177 1.84767
0.153241 110.899 212.789 415.458 4.03446 29.9622 1.8454
0.153675 110.899 212.777 415.349 4.03199 29.9066 1.84312
0.154109 110.9 212.765 415.24 4.02952 29.8511 1.84084
0.154544 110.9 212.752 415.13 4.02705 29.7956 1.83856
0.154978 110.9 212.74 415.02 4.02457 29.7402 1.83628
0.155412 110.9 212.727 414.91 4.02208 29.6847 1.834
0.155846 110.9 212.714 414.799 4.01959 29.6293 1.83171
0.15628 110.9 212.701 414.688 4.01709 29.5739 1.82943
0.156714 110.9 212.688 414.576 4.01459 29.5186 1.82714
0.157148 110.9 212.674 414.464 4.01209 29.4632 1.82485
0.157582 110.9 212.661 414.352 4.00957 29.4079 1.82257
0.158016 110.899 212.647 414.239 4.00706 29.3526 1.82028
0.158451 110.899 212.632 414.126 4.00454 29.2974 1.81799
0.158885 110.898 212.618 414.012 4.00201 29.2422 1.81569
0.159319 110.897 212.603 413.899 3.99948 29.187 1.8134
0.159753 110.897 212.589 413.784 3.99694 29.1318 1.81111
0.160187 110.896 212.574 413.67 3.9944 29.0767 1.80881
0.160621 110.895 212.558 413.555 3.99185 29.0216 1.80652
0.161055 110.894 212.543 413.44 3.98929 28.9665 1.80422
0.161489 110.892 212.527 413.324 3.98674 28.9114 1.80192
0.161923 110.891 212.511 413.208 3.98417 28.8564 1.79962
0.162358 110.89 212.495 413.091 3.9816 28.8014 1.79732
0.162792 110.888 212.479 412.974 3.97903 28.7464 1.79502
0.163226 110.886 212.463 412.857 3.97645 28.6914 1.79271
0.16366 110.885 212.446 412.74 3.97386 28.6365 1.79041
0.164094 110.883 212.429 412.622 3.97127 28.5816 1.7881
0.164528 110.881 212.412 412.503 3.96868 28.5268 1.78579
0.164962 110.879 212.394 412.384 3.96608 28.4719 1.78349
0.165396 110.877 212.377 412.265 3.96347 28.4171 1.78118
0.16583 110.874 212.359 412.146 3.96086 28.3624 1.77887
0.166265 110.872 212.341 412.026 3.95824 28.3076 1.77656
0.166699 110.869 212.323 411.906 3.95562 28.2529 1.77424
0.167133 110.867 212.304 411.785 3.953 28.1982 1.77193
0.167567 110.864 212.286 411.664 3.95036 28.1435 1.76961
0.168001 110.861 212.267 411.542 3.94773 28.0889 1.7673
0.168435 110.858 212.248 411.421 3.94508 28.0343 1.76498
0.168869 110.855 212.228 411.298 3.94243 27.9797 1.76266
0.169303 110.852 212.209 411.176 3.93978 27.9252 1.76034
0.169737 110.849 212.189 411.053 3.93712 27.8706 1.75802
0.170172 110.846 212.169 410.929 3.93446 27.8161 1.7557
0.170606 110.842 212.149 410.806 3.93179 27.7617 1.75338
0.17104 110.839 212.128 410.681 3.92911 27.7073 1.75106
0.171474 110.835 212.108 410.557 3.92643 27.6529 1.74873
0.171908 110.831 212.087 410.432 3.92375 27.5985 1.7464
0.172342 110.828 212.066 410.306 3.92106 27.5441 1.74408
0.172776 110.824 212.044 410.181 3.91836 27.4898 1.74175
0.17321 110.82 212.023 410.055 3.91566 27.4356 1.73942
0.173644 110.815 212.001 409.928 3.91295 27.3813 1.73709
0.174079 110.811 211.979 409.801 3.91024 27.3271 1.73476
0.174513 110.807 211.957 409.674 3.90752 27.2729 1.73243
0.174947 110.802 211.934 409.546 3.9048 27.2187 1.73009
0.175381 110.798 211.912 409.418 3.90207 27.1646 1.72776
0.175815 110.793 211.889 409.289 3.89933 27.1105 1.72542
0.176249 110.788 211.865 409.16 3.89659 27.0564 1.72309
0.176683 110.783 211.842 409.031 3.89385 27.0024 1.72075
0.177117 110.778 211.818 408.901 3.8911 26.9484 1.71841
0.177551 110.773 211.795 408.771 3.88834 26.8944 1.71607
0.177986 110.767 211.771 408.641 3.88558 26.8404 1.71373
0.17842 110.762 211.746 408.51 3.88282 26.7865 1.71139
0.178854 110.756 211.722 408.378 3.88004 26.7326 1.70905
0.179288 110.751 211.697 408.247 3.87727 26.6788 1.7067
0.179722 110.745 211.672 408.115 3.87448 26.625 1.70436
0.180156 110.739 211.647 407.982 3.8717 26.5712 1.70201
0.18059 110.733 211.621 407.849 3.8689 26.5174 1.69966
0.181024 110.727 211.596 407.716 3.8661 26.4637 1.69732
0.181458 110.721 211.57 407.582 3.8633 26.41 1.69497
0.181893 110.715 211.543 407.448 3.86049 26.3563 1.69262
0.182327 110.708 211.517 407.313 3.85767 26.3027 1.69027
0.182761 110.702 211.49 407.178 3.85485 26.2491 1.68791
0.183195 110.695 211.464 407.043 3.85203 26.1955 1.68556
0.183629 110.688 211.436 406.907 3.84919 26.142 1.68321
0.184063 110.681 211.409 406.771 3.84636 26.0885 1.68085
0.184497 110.674 211.382 406.634 3.84351 26.035 1.6785
0.184931 110.667 211.354 406.497 3.84067 25.9816 1.67614
0.185365 110.66 211.326 406.36 3.83781 25.9282 1.67378
0.1858 110.653 211.297 406.222 3.83495 25.8748 1.67142
0.186234 110.645 211.269 406.083 3.83209 25.8214 1.66906
0.186668 110.638 211.24 405.945 3.82922 25.7681 1.6667
0.187102 110.63 211.211 405.806 3.82634 25.7148 1.66434
0.187536 110.622 211.182 405.666 3.82346 25.6616 1.66198
0.18797 110.614 211.152 405.526 3.82058 25.6084 1.65961
0.188404 110.606 211.123 405.386 3.81768 25.5552 1.65725
0.188838 110.598 211.093 405.245 3.81479 25.5021 1.65488
0.189272 110.59 211.062 405.104 3.81188 25.4489 1.65252
0.189707 110.581 211.032 404.962 3.80897 25.3959 1.65015
0.190141 110.573 211.001 404.82 3.80606 25.3428 1.64778
0.190575 110.564 210.97 404.677 3.80314 25.2898 1.64541
0.191009 110.555 210.939 404.535 3.80022 25.2368 1.64304
0.191443 110.546 210.908 404.391 3.79729 25.1839 1.64067
0.191877 110.537 210.876 404.247 3.79435 25.131 1.6383
0.192311 110.528 210.844 404.103 3.79141 25.0781 1.63593
0.192745 110.519 210.812 403.959 3.78846 25.0252 1.63355
0.193179 110.51 210.779 403.814 3.78551 24.9724 1.63118
0.193614 110.5 210.747 403.668 3.78255 24.9197 1.6288
0.194048 110.49 210.714 403.522 3.77958 24.8669 1.62643
0.194482 110.481 210.681 403.376 3.77662 24.8142 1.62405
0.194916 110.471 210.647 403.229 3.77364 24.7615 1.62167
0.19535 110.461 210.613 403.082 3.77066 24.7089 1.61929
0.195784 110.451 210.579 402.935 3.76767 24.6563 1.61691
0.196218 110.44 210.545 402.787 3.76468 24.6037 1.61453
0.196652 110.43 210.511 402.638 3.76168 24.5512 1.61215
0.197086 110.42 210.476 402.489 3.75868 24.4987 1.60977
0.197521 110.409 210.441 402.34 3.75567 24.4462 1.60738
0.197955 110.398 210.406 402.19 3.75266 24.3938 1.605
0.198389 110.387 210.371 402.04 3.74964 24.3414 1.60261
0.198823 110.376 210.335 401.889 3.74661 24.289 1.60023
0.199257 110.365 210.299 401.738 3.74358 24.2367 1.59784
0.199691 110.354 210.263 401.587 3.74055 24.1844 1.59545
0.200125 110.343 210.226 401.435 3.73751 24.1322 1.59306
0.200559 110.331 210.19 401.282 3.73446 24.0799 1.59068
0.200993 110.319 210.153 401.13 3.73141 24.0278 1.58828
0.201428 110.308 210.115 400.976 3.72835 23.9756 1.58589
0.201862 110.296 210.078 400.823 3.72528 23.9235 1.5835
0.202296 110.284 210.04 400.669 3.72221 23.8714 1.58111
0.20273 110.272 210.002 400.514 3.71914 23.8194 1.57872
0.203164 110.259 209.964 400.359 3.71606 23.7674 1.57632
0.203598 110.247 209.925 400.203 3.71297 23.7154 1.57393
0.204032 110.235 209.887 400.048 3.70988 23.6635 1.57153
0.204466 110.222 209.848 399.891 3.70678 23.6116 1.56913
0.2049 110.209 209.808 399.734 3.70367 23.5597 1.56674
0.205335 110.196 209.769 399.577 3.70057 23.5079 1.56434
0.205769 110.183 209.729 399.42 3.69745 23.4561 1.56194
0.206203 110.17 209.689 399.261 3.69433 23.4044 1.55954
0.206637 110.157 209.648 399.103 3.6912 23.3527 1.55714
0.207071 110.143 209.608 398.944 3.68807 23.301 1.55474
0.207505 110.13 209.567 398.784 3.68493 23.2494 1.55234
0.207939 110.116 209.526 398.624 3.68179 23.1978 1.54993
0.208373 110.102 209.484 398.464 3.67864 23.1462 1.54753
0.208807 110.088 209.443 398.303 3.67549 23.0947 1.54513
0.209242 110.074 209.401 398.142 3.67233 23.0432 1.54272
0.209676 110.06 209.359 397.98 3.66916 22.9918 1.54031
0.21011 110.046 209.316 397.818 3.66599 22.9403 1.53791
0.210544 110.031 209.273 397.655 3.66281 22.889 1.5355
0.210978 110.016 209.23 397.492 3.65963 22.8376 1.53309
0.211412 110.002 209.187 397.329 3.65644 22.7863 1.53069
0.211846 109.987 209.144 397.165 3.65325 22.7351 1.52828
0.21228 109.972 209.1 397 3.65005 22.6839 1.52587
0.212714 109.957 209.056 396.835 3.64684 22.6327 1.52346
0.213149 109.941 209.011 396.67 3.64363 22.5815 1.52104
0.213583 109.926 208.967 396.504 3.64041 22.5304 1.51863
0.214017 109.91 208.922 396.338 3.63719 22.4794 1.51622
0.214451 109.895 208.877 396.171 3.63396 22.4283 1.51381
0.214885 109.879 208.831 396.004 3.63073 22.3773 1.51139
0.215319 109.863 208.785 395.836 3.62749 22.3264 1.50898
0.215753 109.847 208.74 395.668 3.62425 22.2755 1.50656
0.216187 109.83 208.693 395.5 3.62099 22.2246 1.50415
0.216621 109.814 208.647 395.331 3.61774 22.1738 1.50173
